# GET_DESCRIPTOR
# GET_DESCRIPTOR
# GET_DESCRIPTOR
# SELECT_CONFIGURATION
# GET_DESCRIPTOR
BULK > 02 (URB 6) [320 ms]
    00000000: 01 d0 01 00

BULK > 03 (URB 7) [321 ms]
BULK < 83 (URB 7)
    00000000: 81

BULK > 02 (URB 8) [322 ms]
    00000000: 01 46 01 00

BULK > 03 (URB 9) [322 ms]
BULK < 83 (URB 9)
    00000000: 00

BULK > 02 (URB 10) [323 ms]
    00000000: 00 02 01 00 01

BULK > 02 (URB 11) [330 ms]
    00000000: 00 02 01 00 00

BULK > 02 (URB 12) [330 ms]
    00000000: 00 01 01 00 00

BULK > 02 (URB 13) [331 ms]
    00000000: 00 01 01 00 28

BULK > 02 (URB 14) [332 ms]
    00000000: 00 90 01 00 4f

BULK > 02 (URB 15) [332 ms]
    00000000: 00 92 01 00 ff

BULK > 02 (URB 16) [379 ms]
    00000000: 01 91 01 00

BULK > 03 (URB 17) [380 ms]
BULK < 83 (URB 17)
    00000000: 00

BULK > 02 (URB 18) [380 ms]
    00000000: 00 93 01 00 00

BULK > 02 (URB 19) [381 ms]
    00000000: 00 91 01 00 1f

BULK > 02 (URB 20) [381 ms]
    00000000: 00 95 01 00 1f

BULK > 02 (URB 21) [381 ms]
    00000000: 00 97 01 00 1f

BULK > 02 (URB 22) [382 ms]
    00000000: 00 9b 01 00 00

BULK > 02 (URB 23) [382 ms]
    00000000: 00 9c 01 00 07

BULK > 02 (URB 24) [382 ms]
    00000000: 00 90 01 00 4d

BULK > 02 (URB 25) [430 ms]
    00000000: 00 90 01 00 cd

BULK > 02 (URB 26) [480 ms]
    00000000: 00 90 01 00 cc

BULK > 02 (URB 27) [530 ms]
    00000000: 00 9b 01 00 01

BULK > 02 (URB 28) [530 ms]
    00000000: 00 a0 01 00 04

BULK > 02 (URB 29) [730 ms]
    00000000: 00 a0 01 00 05

BULK > 02 (URB 30) [730 ms]
    00000000: 00 01 01 00 28

BULK > 02 (URB 31) [730 ms]
    00000000: 00 04 01 00 0c

BULK > 02 (URB 32) [731 ms]
    00000000: 00 05 01 00 00

BULK > 02 (URB 33) [731 ms]
    00000000: 00 06 01 00 00

BULK > 02 (URB 34) [732 ms]
    00000000: 00 98 01 00 00

BULK > 02 (URB 35) [732 ms]
    00000000: 00 98 01 00 00

BULK > 02 (URB 36) [732 ms]
    00000000: 00 98 01 00 02

BULK > 02 (URB 37) [733 ms]
    00000000: 00 99 01 00 28

BULK > 02 (URB 38) [733 ms]
    00000000: 00 9a 01 00 03

BULK > 02 (URB 39) [733 ms]
    00000000: 00 80 01 00 10

BULK > 02 (URB 40) [734 ms]
    00000000: 00 8d 01 00 00

BULK > 02 (URB 41) [734 ms]
    00000000: 00 8d 01 00 04

BULK > 02 (URB 42) [734 ms]
    00000000: 01 8b 01 00

BULK > 03 (URB 43) [735 ms]
BULK < 83 (URB 43)
    00000000: 00

BULK > 02 (URB 44) [735 ms]
    00000000: 01 8b 01 00

BULK > 03 (URB 45) [735 ms]
BULK < 83 (URB 45)
    00000000: 00

BULK > 02 (URB 46) [736 ms]
    00000000: 00 85 01 00 00

BULK > 02 (URB 47) [736 ms]
    00000000: 00 87 01 00 00

BULK > 02 (URB 48) [736 ms]
    00000000: 00 88 01 00 70

BULK > 02 (URB 49) [737 ms]
    00000000: 01 8b 01 00

BULK > 03 (URB 50) [737 ms]
BULK < 83 (URB 50)
    00000000: 00

BULK > 02 (URB 51) [737 ms]
    00000000: 01 8b 01 00

BULK > 03 (URB 52) [738 ms]
BULK < 83 (URB 52)
    00000000: 00

BULK > 02 (URB 53) [738 ms]
    00000000: 00 85 01 00 03

BULK > 02 (URB 54) [738 ms]
    00000000: 00 87 01 00 00

BULK > 02 (URB 55) [738 ms]
    00000000: 00 88 01 00 28

BULK > 02 (URB 56) [739 ms]
    00000000: 01 8b 01 00

BULK > 03 (URB 57) [739 ms]
BULK < 83 (URB 57)
    00000000: 00

BULK > 02 (URB 58) [740 ms]
    00000000: 01 8b 01 00

BULK > 03 (URB 59) [740 ms]
BULK < 83 (URB 59)
    00000000: 00

BULK > 02 (URB 60) [740 ms]
    00000000: 00 85 01 00 06

BULK > 02 (URB 61) [740 ms]
    00000000: 00 87 01 00 00

BULK > 02 (URB 62) [741 ms]
    00000000: 00 88 01 00 28

BULK > 02 (URB 63) [741 ms]
    00000000: 01 00 01 00

BULK > 03 (URB 64) [741 ms]
BULK < 83 (URB 64)
    00000000: 40

BULK > 02 (URB 65) [742 ms]
    00000000: 01 01 01 00

BULK > 03 (URB 66) [742 ms]
BULK < 83 (URB 66)
    00000000: 28

BULK > 02 (URB 67) [742 ms]
    00000000: 01 02 01 00

BULK > 03 (URB 68) [743 ms]
BULK < 83 (URB 68)
    00000000: 00

BULK > 02 (URB 69) [743 ms]
    00000000: 01 03 01 00

BULK > 03 (URB 70) [743 ms]
BULK < 83 (URB 70)
    00000000: 00

BULK > 02 (URB 71) [743 ms]
    00000000: 01 04 01 00

BULK > 03 (URB 72) [744 ms]
BULK < 83 (URB 72)
    00000000: 0c

BULK > 02 (URB 73) [744 ms]
    00000000: 01 05 01 00

BULK > 03 (URB 74) [744 ms]
BULK < 83 (URB 74)
    00000000: 00

BULK > 02 (URB 75) [744 ms]
    00000000: 01 06 01 00

BULK > 03 (URB 76) [745 ms]
BULK < 83 (URB 76)
    00000000: 00

BULK > 02 (URB 77) [745 ms]
    00000000: 01 07 01 00

BULK > 03 (URB 78) [745 ms]
BULK < 83 (URB 78)
    00000000: 00

BULK > 02 (URB 79) [746 ms]
    00000000: 01 08 01 00

BULK > 03 (URB 80) [746 ms]
BULK < 83 (URB 80)
    00000000: 00

BULK > 02 (URB 81) [746 ms]
    00000000: 01 09 01 00

BULK > 03 (URB 82) [746 ms]
BULK < 83 (URB 82)
    00000000: 00

BULK > 02 (URB 83) [747 ms]
    00000000: 01 0a 01 00

BULK > 03 (URB 84) [747 ms]
BULK < 83 (URB 84)
    00000000: 00

BULK > 02 (URB 85) [747 ms]
    00000000: 01 0b 01 00

BULK > 03 (URB 86) [747 ms]
BULK < 83 (URB 86)
    00000000: 00

BULK > 02 (URB 87) [748 ms]
    00000000: 01 0c 01 00

BULK > 03 (URB 88) [748 ms]
BULK < 83 (URB 88)
    00000000: 00

BULK > 02 (URB 89) [748 ms]
    00000000: 01 0d 01 00

BULK > 03 (URB 90) [749 ms]
BULK < 83 (URB 90)
    00000000: 00

BULK > 02 (URB 91) [749 ms]
    00000000: 01 0e 01 00

BULK > 03 (URB 92) [749 ms]
BULK < 83 (URB 92)
    00000000: 00

BULK > 02 (URB 93) [749 ms]
    00000000: 01 0f 01 00

BULK > 03 (URB 94) [750 ms]
BULK < 83 (URB 94)
    00000000: 00

BULK > 02 (URB 95) [750 ms]
    00000000: 01 10 01 00

BULK > 03 (URB 96) [750 ms]
BULK < 83 (URB 96)
    00000000: 00

BULK > 02 (URB 97) [751 ms]
    00000000: 01 11 01 00

BULK > 03 (URB 98) [751 ms]
BULK < 83 (URB 98)
    00000000: 00

BULK > 02 (URB 99) [751 ms]
    00000000: 01 12 01 00

BULK > 03 (URB 100) [751 ms]
BULK < 83 (URB 100)
    00000000: 00

BULK > 02 (URB 101) [752 ms]
    00000000: 01 13 01 00

BULK > 03 (URB 102) [752 ms]
BULK < 83 (URB 102)
    00000000: 00

BULK > 02 (URB 103) [752 ms]
    00000000: 01 14 01 00

BULK > 03 (URB 104) [752 ms]
BULK < 83 (URB 104)
    00000000: 00

BULK > 02 (URB 105) [753 ms]
    00000000: 01 15 01 00

BULK > 03 (URB 106) [753 ms]
BULK < 83 (URB 106)
    00000000: 00

BULK > 02 (URB 107) [753 ms]
    00000000: 01 16 01 00

BULK > 03 (URB 108) [754 ms]
BULK < 83 (URB 108)
    00000000: 00

BULK > 02 (URB 109) [754 ms]
    00000000: 01 17 01 00

BULK > 03 (URB 110) [754 ms]
BULK < 83 (URB 110)
    00000000: 00

BULK > 02 (URB 111) [754 ms]
    00000000: 01 18 01 00

BULK > 03 (URB 112) [755 ms]
BULK < 83 (URB 112)
    00000000: 00

BULK > 02 (URB 113) [755 ms]
    00000000: 01 19 01 00

BULK > 03 (URB 114) [755 ms]
BULK < 83 (URB 114)
    00000000: 00

BULK > 02 (URB 115) [756 ms]
    00000000: 01 1a 01 00

BULK > 03 (URB 116) [756 ms]
BULK < 83 (URB 116)
    00000000: 00

BULK > 02 (URB 117) [756 ms]
    00000000: 01 1b 01 00

BULK > 03 (URB 118) [756 ms]
BULK < 83 (URB 118)
    00000000: 00

BULK > 02 (URB 119) [757 ms]
    00000000: 01 1c 01 00

BULK > 03 (URB 120) [757 ms]
BULK < 83 (URB 120)
    00000000: 00

BULK > 02 (URB 121) [757 ms]
    00000000: 01 1d 01 00

BULK > 03 (URB 122) [757 ms]
BULK < 83 (URB 122)
    00000000: 00

BULK > 02 (URB 123) [758 ms]
    00000000: 01 1e 01 00

BULK > 03 (URB 124) [758 ms]
BULK < 83 (URB 124)
    00000000: 00

BULK > 02 (URB 125) [758 ms]
    00000000: 01 1f 01 00

BULK > 03 (URB 126) [759 ms]
BULK < 83 (URB 126)
    00000000: 00

BULK > 02 (URB 127) [759 ms]
    00000000: 01 20 01 00

BULK > 03 (URB 128) [759 ms]
BULK < 83 (URB 128)
    00000000: 00

BULK > 02 (URB 129) [759 ms]
    00000000: 01 21 01 00

BULK > 03 (URB 130) [760 ms]
BULK < 83 (URB 130)
    00000000: 00

BULK > 02 (URB 131) [760 ms]
    00000000: 01 22 01 00

BULK > 03 (URB 132) [760 ms]
BULK < 83 (URB 132)
    00000000: 00

BULK > 02 (URB 133) [760 ms]
    00000000: 01 23 01 00

BULK > 03 (URB 134) [761 ms]
BULK < 83 (URB 134)
    00000000: 00

BULK > 02 (URB 135) [761 ms]
    00000000: 01 24 01 00

BULK > 03 (URB 136) [761 ms]
BULK < 83 (URB 136)
    00000000: 00

BULK > 02 (URB 137) [762 ms]
    00000000: 01 25 01 00

BULK > 03 (URB 138) [762 ms]
BULK < 83 (URB 138)
    00000000: 00

BULK > 02 (URB 139) [762 ms]
    00000000: 01 26 01 00

BULK > 03 (URB 140) [762 ms]
BULK < 83 (URB 140)
    00000000: 00

BULK > 02 (URB 141) [763 ms]
    00000000: 01 27 01 00

BULK > 03 (URB 142) [763 ms]
BULK < 83 (URB 142)
    00000000: 00

BULK > 02 (URB 143) [763 ms]
    00000000: 01 28 01 00

BULK > 03 (URB 144) [763 ms]
BULK < 83 (URB 144)
    00000000: 00

BULK > 02 (URB 145) [764 ms]
    00000000: 01 29 01 00

BULK > 03 (URB 146) [764 ms]
BULK < 83 (URB 146)
    00000000: 00

BULK > 02 (URB 147) [764 ms]
    00000000: 01 2a 01 00

BULK > 03 (URB 148) [765 ms]
BULK < 83 (URB 148)
    00000000: 00

BULK > 02 (URB 149) [765 ms]
    00000000: 01 2b 01 00

BULK > 03 (URB 150) [765 ms]
BULK < 83 (URB 150)
    00000000: 00

BULK > 02 (URB 151) [765 ms]
    00000000: 01 2c 01 00

BULK > 03 (URB 152) [766 ms]
BULK < 83 (URB 152)
    00000000: 00

BULK > 02 (URB 153) [766 ms]
    00000000: 01 2d 01 00

BULK > 03 (URB 154) [766 ms]
BULK < 83 (URB 154)
    00000000: 00

BULK > 02 (URB 155) [767 ms]
    00000000: 01 2e 01 00

BULK > 03 (URB 156) [767 ms]
BULK < 83 (URB 156)
    00000000: 00

BULK > 02 (URB 157) [767 ms]
    00000000: 01 2f 01 00

BULK > 03 (URB 158) [767 ms]
BULK < 83 (URB 158)
    00000000: 00

BULK > 02 (URB 159) [768 ms]
    00000000: 01 30 01 00

BULK > 03 (URB 160) [768 ms]
BULK < 83 (URB 160)
    00000000: 00

BULK > 02 (URB 161) [768 ms]
    00000000: 01 31 01 00

BULK > 03 (URB 162) [768 ms]
BULK < 83 (URB 162)
    00000000: 00

BULK > 02 (URB 163) [769 ms]
    00000000: 01 32 01 00

BULK > 03 (URB 164) [769 ms]
BULK < 83 (URB 164)
    00000000: 00

BULK > 02 (URB 165) [769 ms]
    00000000: 01 33 01 00

BULK > 03 (URB 166) [770 ms]
BULK < 83 (URB 166)
    00000000: 00

BULK > 02 (URB 167) [770 ms]
    00000000: 01 34 01 00

BULK > 03 (URB 168) [770 ms]
BULK < 83 (URB 168)
    00000000: 00

BULK > 02 (URB 169) [770 ms]
    00000000: 01 35 01 00

BULK > 03 (URB 170) [771 ms]
BULK < 83 (URB 170)
    00000000: 00

BULK > 02 (URB 171) [771 ms]
    00000000: 01 36 01 00

BULK > 03 (URB 172) [771 ms]
BULK < 83 (URB 172)
    00000000: 00

BULK > 02 (URB 173) [772 ms]
    00000000: 01 37 01 00

BULK > 03 (URB 174) [772 ms]
BULK < 83 (URB 174)
    00000000: 00

BULK > 02 (URB 175) [772 ms]
    00000000: 01 38 01 00

BULK > 03 (URB 176) [772 ms]
BULK < 83 (URB 176)
    00000000: 00

BULK > 02 (URB 177) [773 ms]
    00000000: 01 39 01 00

BULK > 03 (URB 178) [773 ms]
BULK < 83 (URB 178)
    00000000: 00

BULK > 02 (URB 179) [773 ms]
    00000000: 01 3a 01 00

BULK > 03 (URB 180) [773 ms]
BULK < 83 (URB 180)
    00000000: 00

BULK > 02 (URB 181) [774 ms]
    00000000: 01 3b 01 00

BULK > 03 (URB 182) [774 ms]
BULK < 83 (URB 182)
    00000000: 00

BULK > 02 (URB 183) [774 ms]
    00000000: 01 3c 01 00

BULK > 03 (URB 184) [775 ms]
BULK < 83 (URB 184)
    00000000: 00

BULK > 02 (URB 185) [775 ms]
    00000000: 01 3d 01 00

BULK > 03 (URB 186) [775 ms]
BULK < 83 (URB 186)
    00000000: 00

BULK > 02 (URB 187) [775 ms]
    00000000: 01 3e 01 00

BULK > 03 (URB 188) [776 ms]
BULK < 83 (URB 188)
    00000000: 00

BULK > 02 (URB 189) [776 ms]
    00000000: 01 3f 01 00

BULK > 03 (URB 190) [776 ms]
BULK < 83 (URB 190)
    00000000: 00

BULK > 02 (URB 191) [776 ms]
    00000000: 01 40 01 00

BULK > 03 (URB 192) [777 ms]
BULK < 83 (URB 192)
    00000000: 00

BULK > 02 (URB 193) [777 ms]
    00000000: 01 41 01 00

BULK > 03 (URB 194) [777 ms]
BULK < 83 (URB 194)
    00000000: 00

BULK > 02 (URB 195) [778 ms]
    00000000: 01 42 01 00

BULK > 03 (URB 196) [778 ms]
BULK < 83 (URB 196)
    00000000: 00

BULK > 02 (URB 197) [778 ms]
    00000000: 01 43 01 00

BULK > 03 (URB 198) [778 ms]
BULK < 83 (URB 198)
    00000000: 00

BULK > 02 (URB 199) [779 ms]
    00000000: 01 44 01 00

BULK > 03 (URB 200) [779 ms]
BULK < 83 (URB 200)
    00000000: 00

BULK > 02 (URB 201) [779 ms]
    00000000: 01 45 01 00

BULK > 03 (URB 202) [780 ms]
BULK < 83 (URB 202)
    00000000: 00

BULK > 02 (URB 203) [780 ms]
    00000000: 01 46 01 00

BULK > 03 (URB 204) [780 ms]
BULK < 83 (URB 204)
    00000000: 08

BULK > 02 (URB 205) [780 ms]
    00000000: 01 47 01 00

BULK > 03 (URB 206) [781 ms]
BULK < 83 (URB 206)
    00000000: 00

BULK > 02 (URB 207) [781 ms]
    00000000: 01 48 01 00

BULK > 03 (URB 208) [781 ms]
BULK < 83 (URB 208)
    00000000: 00

BULK > 02 (URB 209) [781 ms]
    00000000: 01 49 01 00

BULK > 03 (URB 210) [782 ms]
BULK < 83 (URB 210)
    00000000: 00

BULK > 02 (URB 211) [782 ms]
    00000000: 01 4a 01 00

BULK > 03 (URB 212) [782 ms]
BULK < 83 (URB 212)
    00000000: 00

BULK > 02 (URB 213) [783 ms]
    00000000: 01 4b 01 00

BULK > 03 (URB 214) [783 ms]
BULK < 83 (URB 214)
    00000000: 00

BULK > 02 (URB 215) [783 ms]
    00000000: 01 4c 01 00

BULK > 03 (URB 216) [783 ms]
BULK < 83 (URB 216)
    00000000: 00

BULK > 02 (URB 217) [784 ms]
    00000000: 01 4d 01 00

BULK > 03 (URB 218) [784 ms]
BULK < 83 (URB 218)
    00000000: 00

BULK > 02 (URB 219) [784 ms]
    00000000: 01 4e 01 00

BULK > 03 (URB 220) [784 ms]
BULK < 83 (URB 220)
    00000000: 33

BULK > 02 (URB 221) [785 ms]
    00000000: 01 4f 01 00

BULK > 03 (URB 222) [785 ms]
BULK < 83 (URB 222)
    00000000: 00

BULK > 02 (URB 223) [785 ms]
    00000000: 01 50 01 00

BULK > 03 (URB 224) [786 ms]
BULK < 83 (URB 224)
    00000000: 00

BULK > 02 (URB 225) [786 ms]
    00000000: 01 51 01 00

BULK > 03 (URB 226) [786 ms]
BULK < 83 (URB 226)
    00000000: 00

BULK > 02 (URB 227) [786 ms]
    00000000: 01 52 01 00

BULK > 03 (URB 228) [787 ms]
BULK < 83 (URB 228)
    00000000: 00

BULK > 02 (URB 229) [787 ms]
    00000000: 01 53 01 00

BULK > 03 (URB 230) [787 ms]
BULK < 83 (URB 230)
    00000000: 00

BULK > 02 (URB 231) [788 ms]
    00000000: 01 54 01 00

BULK > 03 (URB 232) [788 ms]
BULK < 83 (URB 232)
    00000000: 00

BULK > 02 (URB 233) [788 ms]
    00000000: 01 55 01 00

BULK > 03 (URB 234) [788 ms]
BULK < 83 (URB 234)
    00000000: 00

BULK > 02 (URB 235) [789 ms]
    00000000: 01 56 01 00

BULK > 03 (URB 236) [789 ms]
BULK < 83 (URB 236)
    00000000: 00

BULK > 02 (URB 237) [789 ms]
    00000000: 01 57 01 00

BULK > 03 (URB 238) [789 ms]
BULK < 83 (URB 238)
    00000000: 00

BULK > 02 (URB 239) [790 ms]
    00000000: 01 58 01 00

BULK > 03 (URB 240) [790 ms]
BULK < 83 (URB 240)
    00000000: 00

BULK > 02 (URB 241) [790 ms]
    00000000: 01 59 01 00

BULK > 03 (URB 242) [791 ms]
BULK < 83 (URB 242)
    00000000: 00

BULK > 02 (URB 243) [791 ms]
    00000000: 01 5a 01 00

BULK > 03 (URB 244) [791 ms]
BULK < 83 (URB 244)
    00000000: 00

BULK > 02 (URB 245) [791 ms]
    00000000: 01 5b 01 00

BULK > 03 (URB 246) [792 ms]
BULK < 83 (URB 246)
    00000000: 00

BULK > 02 (URB 247) [792 ms]
    00000000: 01 5c 01 00

BULK > 03 (URB 248) [792 ms]
BULK < 83 (URB 248)
    00000000: 00

BULK > 02 (URB 249) [793 ms]
    00000000: 01 5d 01 00

BULK > 03 (URB 250) [793 ms]
BULK < 83 (URB 250)
    00000000: 00

BULK > 02 (URB 251) [793 ms]
    00000000: 01 5e 01 00

BULK > 03 (URB 252) [793 ms]
BULK < 83 (URB 252)
    00000000: 00

BULK > 02 (URB 253) [794 ms]
    00000000: 01 5f 01 00

BULK > 03 (URB 254) [794 ms]
BULK < 83 (URB 254)
    00000000: 00

BULK > 02 (URB 255) [794 ms]
    00000000: 01 60 01 00

BULK > 03 (URB 256) [794 ms]
BULK < 83 (URB 256)
    00000000: 00

BULK > 02 (URB 257) [795 ms]
    00000000: 01 61 01 00

BULK > 03 (URB 258) [795 ms]
BULK < 83 (URB 258)
    00000000: 00

BULK > 02 (URB 259) [795 ms]
    00000000: 01 62 01 00

BULK > 03 (URB 260) [796 ms]
BULK < 83 (URB 260)
    00000000: 00

BULK > 02 (URB 261) [796 ms]
    00000000: 01 63 01 00

BULK > 03 (URB 262) [796 ms]
BULK < 83 (URB 262)
    00000000: 00

BULK > 02 (URB 263) [796 ms]
    00000000: 01 64 01 00

BULK > 03 (URB 264) [797 ms]
BULK < 83 (URB 264)
    00000000: 00

BULK > 02 (URB 265) [797 ms]
    00000000: 01 65 01 00

BULK > 03 (URB 266) [797 ms]
BULK < 83 (URB 266)
    00000000: 00

BULK > 02 (URB 267) [797 ms]
    00000000: 01 66 01 00

BULK > 03 (URB 268) [798 ms]
BULK < 83 (URB 268)
    00000000: 00

BULK > 02 (URB 269) [798 ms]
    00000000: 01 67 01 00

BULK > 03 (URB 270) [798 ms]
BULK < 83 (URB 270)
    00000000: 00

BULK > 02 (URB 271) [799 ms]
    00000000: 01 68 01 00

BULK > 03 (URB 272) [799 ms]
BULK < 83 (URB 272)
    00000000: 00

BULK > 02 (URB 273) [799 ms]
    00000000: 01 69 01 00

BULK > 03 (URB 274) [799 ms]
BULK < 83 (URB 274)
    00000000: 00

BULK > 02 (URB 275) [800 ms]
    00000000: 01 6a 01 00

BULK > 03 (URB 276) [800 ms]
BULK < 83 (URB 276)
    00000000: 00

BULK > 02 (URB 277) [800 ms]
    00000000: 01 6b 01 00

BULK > 03 (URB 278) [800 ms]
BULK < 83 (URB 278)
    00000000: 00

BULK > 02 (URB 279) [801 ms]
    00000000: 01 6c 01 00

BULK > 03 (URB 280) [801 ms]
BULK < 83 (URB 280)
    00000000: 00

BULK > 02 (URB 281) [801 ms]
    00000000: 01 6d 01 00

BULK > 03 (URB 282) [802 ms]
BULK < 83 (URB 282)
    00000000: 00

BULK > 02 (URB 283) [802 ms]
    00000000: 01 6e 01 00

BULK > 03 (URB 284) [802 ms]
BULK < 83 (URB 284)
    00000000: 01

BULK > 02 (URB 285) [802 ms]
    00000000: 01 6f 01 00

BULK > 03 (URB 286) [803 ms]
BULK < 83 (URB 286)
    00000000: 01

BULK > 02 (URB 287) [803 ms]
    00000000: 01 70 01 00

BULK > 03 (URB 288) [803 ms]
BULK < 83 (URB 288)
    00000000: 00

BULK > 02 (URB 289) [804 ms]
    00000000: 01 71 01 00

BULK > 03 (URB 290) [804 ms]
BULK < 83 (URB 290)
    00000000: 00

BULK > 02 (URB 291) [804 ms]
    00000000: 01 72 01 00

BULK > 03 (URB 292) [804 ms]
BULK < 83 (URB 292)
    00000000: 00

BULK > 02 (URB 293) [805 ms]
    00000000: 01 73 01 00

BULK > 03 (URB 294) [805 ms]
BULK < 83 (URB 294)
    00000000: 00

BULK > 02 (URB 295) [805 ms]
    00000000: 01 74 01 00

BULK > 03 (URB 296) [805 ms]
BULK < 83 (URB 296)
    00000000: 00

BULK > 02 (URB 297) [806 ms]
    00000000: 01 75 01 00

BULK > 03 (URB 298) [806 ms]
BULK < 83 (URB 298)
    00000000: 00

BULK > 02 (URB 299) [806 ms]
    00000000: 01 76 01 00

BULK > 03 (URB 300) [807 ms]
BULK < 83 (URB 300)
    00000000: 00

BULK > 02 (URB 301) [807 ms]
    00000000: 01 77 01 00

BULK > 03 (URB 302) [807 ms]
BULK < 83 (URB 302)
    00000000: 00

BULK > 02 (URB 303) [807 ms]
    00000000: 01 78 01 00

BULK > 03 (URB 304) [808 ms]
BULK < 83 (URB 304)
    00000000: 00

BULK > 02 (URB 305) [808 ms]
    00000000: 01 79 01 00

BULK > 03 (URB 306) [808 ms]
BULK < 83 (URB 306)
    00000000: 00

BULK > 02 (URB 307) [809 ms]
    00000000: 01 7a 01 00

BULK > 03 (URB 308) [809 ms]
BULK < 83 (URB 308)
    00000000: 00

BULK > 02 (URB 309) [809 ms]
    00000000: 01 7b 01 00

BULK > 03 (URB 310) [809 ms]
BULK < 83 (URB 310)
    00000000: 00

BULK > 02 (URB 311) [810 ms]
    00000000: 01 7c 01 00

BULK > 03 (URB 312) [810 ms]
BULK < 83 (URB 312)
    00000000: 00

BULK > 02 (URB 313) [810 ms]
    00000000: 01 7d 01 00

BULK > 03 (URB 314) [810 ms]
BULK < 83 (URB 314)
    00000000: 00

BULK > 02 (URB 315) [811 ms]
    00000000: 01 7e 01 00

BULK > 03 (URB 316) [811 ms]
BULK < 83 (URB 316)
    00000000: 00

BULK > 02 (URB 317) [811 ms]
    00000000: 01 7f 01 00

BULK > 03 (URB 318) [812 ms]
BULK < 83 (URB 318)
    00000000: 00

BULK > 02 (URB 319) [812 ms]
    00000000: 01 80 01 00

BULK > 03 (URB 320) [812 ms]
BULK < 83 (URB 320)
    00000000: 10

BULK > 02 (URB 321) [812 ms]
    00000000: 01 81 01 00

BULK > 03 (URB 322) [813 ms]
BULK < 83 (URB 322)
    00000000: 00

BULK > 02 (URB 323) [813 ms]
    00000000: 01 82 01 00

BULK > 03 (URB 324) [813 ms]
BULK < 83 (URB 324)
    00000000: 00

BULK > 02 (URB 325) [813 ms]
    00000000: 01 83 01 00

BULK > 03 (URB 326) [814 ms]
BULK < 83 (URB 326)
    00000000: 00

BULK > 02 (URB 327) [814 ms]
    00000000: 01 84 01 00

BULK > 03 (URB 328) [814 ms]
BULK < 83 (URB 328)
    00000000: 00

BULK > 02 (URB 329) [815 ms]
    00000000: 01 85 01 00

BULK > 03 (URB 330) [815 ms]
BULK < 83 (URB 330)
    00000000: 06

BULK > 02 (URB 331) [815 ms]
    00000000: 01 86 01 00

BULK > 03 (URB 332) [815 ms]
BULK < 83 (URB 332)
    00000000: 00

BULK > 02 (URB 333) [816 ms]
    00000000: 01 87 01 00

BULK > 03 (URB 334) [816 ms]
BULK < 83 (URB 334)
    00000000: 00

BULK > 02 (URB 335) [816 ms]
    00000000: 01 88 01 00

BULK > 03 (URB 336) [816 ms]
BULK < 83 (URB 336)
    00000000: 00

BULK > 02 (URB 337) [817 ms]
    00000000: 01 89 01 00

BULK > 03 (URB 338) [817 ms]
BULK < 83 (URB 338)
    00000000: 00

BULK > 02 (URB 339) [817 ms]
    00000000: 01 8a 01 00

BULK > 03 (URB 340) [818 ms]
BULK < 83 (URB 340)
    00000000: 00

BULK > 02 (URB 341) [818 ms]
    00000000: 01 8b 01 00

BULK > 03 (URB 342) [818 ms]
BULK < 83 (URB 342)
    00000000: 00

BULK > 02 (URB 343) [818 ms]
    00000000: 01 8c 01 00

BULK > 03 (URB 344) [819 ms]
BULK < 83 (URB 344)
    00000000: ff

BULK > 02 (URB 345) [819 ms]
    00000000: 01 8d 01 00

BULK > 03 (URB 346) [819 ms]
BULK < 83 (URB 346)
    00000000: 04

BULK > 02 (URB 347) [820 ms]
    00000000: 01 8e 01 00

BULK > 03 (URB 348) [820 ms]
BULK < 83 (URB 348)
    00000000: 00

BULK > 02 (URB 349) [820 ms]
    00000000: 01 8f 01 00

BULK > 03 (URB 350) [820 ms]
BULK < 83 (URB 350)
    00000000: 00

BULK > 02 (URB 351) [821 ms]
    00000000: 01 90 01 00

BULK > 03 (URB 352) [821 ms]
BULK < 83 (URB 352)
    00000000: c8

BULK > 02 (URB 353) [821 ms]
    00000000: 01 91 01 00

BULK > 03 (URB 354) [821 ms]
BULK < 83 (URB 354)
    00000000: 00

BULK > 02 (URB 355) [822 ms]
    00000000: 01 92 01 00

BULK > 03 (URB 356) [822 ms]
BULK < 83 (URB 356)
    00000000: ff

BULK > 02 (URB 357) [822 ms]
    00000000: 01 93 01 00

BULK > 03 (URB 358) [822 ms]
BULK < 83 (URB 358)
    00000000: 00

BULK > 02 (URB 359) [823 ms]
    00000000: 01 94 01 00

BULK > 03 (URB 360) [823 ms]
BULK < 83 (URB 360)
    00000000: ff

BULK > 02 (URB 361) [823 ms]
    00000000: 01 95 01 00

BULK > 03 (URB 362) [824 ms]
BULK < 83 (URB 362)
    00000000: 1f

BULK > 02 (URB 363) [824 ms]
    00000000: 01 96 01 00

BULK > 03 (URB 364) [824 ms]
BULK < 83 (URB 364)
    00000000: 00

BULK > 02 (URB 365) [825 ms]
    00000000: 01 97 01 00

BULK > 03 (URB 366) [825 ms]
BULK < 83 (URB 366)
    00000000: 1f

BULK > 02 (URB 367) [825 ms]
    00000000: 01 98 01 00

BULK > 03 (URB 368) [825 ms]
BULK < 83 (URB 368)
    00000000: 02

BULK > 02 (URB 369) [826 ms]
    00000000: 01 99 01 00

BULK > 03 (URB 370) [826 ms]
BULK < 83 (URB 370)
    00000000: 28

BULK > 02 (URB 371) [826 ms]
    00000000: 01 9a 01 00

BULK > 03 (URB 372) [826 ms]
BULK < 83 (URB 372)
    00000000: 03

BULK > 02 (URB 373) [827 ms]
    00000000: 01 9b 01 00

BULK > 03 (URB 374) [827 ms]
BULK < 83 (URB 374)
    00000000: 01

BULK > 02 (URB 375) [827 ms]
    00000000: 01 9c 01 00

BULK > 03 (URB 376) [828 ms]
BULK < 83 (URB 376)
    00000000: 07

BULK > 02 (URB 377) [828 ms]
    00000000: 01 9d 01 00

BULK > 03 (URB 378) [828 ms]
BULK < 83 (URB 378)
    00000000: 07

BULK > 02 (URB 379) [828 ms]
    00000000: 01 9e 01 00

BULK > 03 (URB 380) [829 ms]
BULK < 83 (URB 380)
    00000000: 00

BULK > 02 (URB 381) [829 ms]
    00000000: 01 9f 01 00

BULK > 03 (URB 382) [829 ms]
BULK < 83 (URB 382)
    00000000: 00

BULK > 02 (URB 383) [829 ms]
    00000000: 01 a0 01 00

BULK > 03 (URB 384) [830 ms]
BULK < 83 (URB 384)
    00000000: 05

BULK > 02 (URB 385) [830 ms]
    00000000: 01 a1 01 00

BULK > 03 (URB 386) [830 ms]
BULK < 83 (URB 386)
    00000000: 00

BULK > 02 (URB 387) [831 ms]
    00000000: 01 a2 01 00

BULK > 03 (URB 388) [831 ms]
BULK < 83 (URB 388)
    00000000: 00

BULK > 02 (URB 389) [831 ms]
    00000000: 01 a3 01 00

BULK > 03 (URB 390) [831 ms]
BULK < 83 (URB 390)
    00000000: 00

BULK > 02 (URB 391) [832 ms]
    00000000: 01 a4 01 00

BULK > 03 (URB 392) [832 ms]
BULK < 83 (URB 392)
    00000000: 05

BULK > 02 (URB 393) [832 ms]
    00000000: 01 a5 01 00

BULK > 03 (URB 394) [833 ms]
BULK < 83 (URB 394)
    00000000: 00

BULK > 02 (URB 395) [833 ms]
    00000000: 01 a6 01 00

BULK > 03 (URB 396) [833 ms]
BULK < 83 (URB 396)
    00000000: 00

BULK > 02 (URB 397) [833 ms]
    00000000: 01 a7 01 00

BULK > 03 (URB 398) [834 ms]
BULK < 83 (URB 398)
    00000000: 00

BULK > 02 (URB 399) [834 ms]
    00000000: 01 a8 01 00

BULK > 03 (URB 400) [834 ms]
BULK < 83 (URB 400)
    00000000: 00

BULK > 02 (URB 401) [835 ms]
    00000000: 01 a9 01 00

BULK > 03 (URB 402) [835 ms]
BULK < 83 (URB 402)
    00000000: 00

BULK > 02 (URB 403) [835 ms]
    00000000: 01 aa 01 00

BULK > 03 (URB 404) [835 ms]
BULK < 83 (URB 404)
    00000000: 00

BULK > 02 (URB 405) [836 ms]
    00000000: 01 ab 01 00

BULK > 03 (URB 406) [836 ms]
BULK < 83 (URB 406)
    00000000: 00

BULK > 02 (URB 407) [836 ms]
    00000000: 01 ac 01 00

BULK > 03 (URB 408) [836 ms]
BULK < 83 (URB 408)
    00000000: 00

BULK > 02 (URB 409) [837 ms]
    00000000: 01 ad 01 00

BULK > 03 (URB 410) [837 ms]
BULK < 83 (URB 410)
    00000000: 00

BULK > 02 (URB 411) [837 ms]
    00000000: 01 ae 01 00

BULK > 03 (URB 412) [838 ms]
BULK < 83 (URB 412)
    00000000: 00

BULK > 02 (URB 413) [838 ms]
    00000000: 01 af 01 00

BULK > 03 (URB 414) [838 ms]
BULK < 83 (URB 414)
    00000000: 00

BULK > 02 (URB 415) [838 ms]
    00000000: 01 b0 01 00

BULK > 03 (URB 416) [839 ms]
BULK < 83 (URB 416)
    00000000: 00

BULK > 02 (URB 417) [839 ms]
    00000000: 01 b1 01 00

BULK > 03 (URB 418) [839 ms]
BULK < 83 (URB 418)
    00000000: 00

BULK > 02 (URB 419) [840 ms]
    00000000: 01 b2 01 00

BULK > 03 (URB 420) [840 ms]
BULK < 83 (URB 420)
    00000000: 00

BULK > 02 (URB 421) [840 ms]
    00000000: 01 b3 01 00

BULK > 03 (URB 422) [840 ms]
BULK < 83 (URB 422)
    00000000: 00

BULK > 02 (URB 423) [841 ms]
    00000000: 01 b4 01 00

BULK > 03 (URB 424) [841 ms]
BULK < 83 (URB 424)
    00000000: 00

BULK > 02 (URB 425) [841 ms]
    00000000: 01 b5 01 00

BULK > 03 (URB 426) [841 ms]
BULK < 83 (URB 426)
    00000000: 00

BULK > 02 (URB 427) [842 ms]
    00000000: 01 b6 01 00

BULK > 03 (URB 428) [842 ms]
BULK < 83 (URB 428)
    00000000: 00

BULK > 02 (URB 429) [842 ms]
    00000000: 01 b7 01 00

BULK > 03 (URB 430) [843 ms]
BULK < 83 (URB 430)
    00000000: 00

BULK > 02 (URB 431) [843 ms]
    00000000: 01 b8 01 00

BULK > 03 (URB 432) [843 ms]
BULK < 83 (URB 432)
    00000000: 00

BULK > 02 (URB 433) [843 ms]
    00000000: 01 b9 01 00

BULK > 03 (URB 434) [844 ms]
BULK < 83 (URB 434)
    00000000: 00

BULK > 02 (URB 435) [844 ms]
    00000000: 01 ba 01 00

BULK > 03 (URB 436) [844 ms]
BULK < 83 (URB 436)
    00000000: 00

BULK > 02 (URB 437) [844 ms]
    00000000: 01 bb 01 00

BULK > 03 (URB 438) [845 ms]
BULK < 83 (URB 438)
    00000000: 00

BULK > 02 (URB 439) [845 ms]
    00000000: 01 bc 01 00

BULK > 03 (URB 440) [845 ms]
BULK < 83 (URB 440)
    00000000: 00

BULK > 02 (URB 441) [846 ms]
    00000000: 01 bd 01 00

BULK > 03 (URB 442) [846 ms]
BULK < 83 (URB 442)
    00000000: 00

BULK > 02 (URB 443) [846 ms]
    00000000: 01 be 01 00

BULK > 03 (URB 444) [846 ms]
BULK < 83 (URB 444)
    00000000: 00

BULK > 02 (URB 445) [847 ms]
    00000000: 01 bf 01 00

BULK > 03 (URB 446) [847 ms]
BULK < 83 (URB 446)
    00000000: 00

BULK > 02 (URB 447) [847 ms]
    00000000: 01 c0 01 00

BULK > 03 (URB 448) [848 ms]
BULK < 83 (URB 448)
    00000000: 00

BULK > 02 (URB 449) [848 ms]
    00000000: 01 c1 01 00

BULK > 03 (URB 450) [848 ms]
BULK < 83 (URB 450)
    00000000: 00

BULK > 02 (URB 451) [848 ms]
    00000000: 01 c2 01 00

BULK > 03 (URB 452) [849 ms]
BULK < 83 (URB 452)
    00000000: 00

BULK > 02 (URB 453) [849 ms]
    00000000: 01 c3 01 00

BULK > 03 (URB 454) [849 ms]
BULK < 83 (URB 454)
    00000000: 00

BULK > 02 (URB 455) [850 ms]
    00000000: 01 c4 01 00

BULK > 03 (URB 456) [850 ms]
BULK < 83 (URB 456)
    00000000: 00

BULK > 02 (URB 457) [850 ms]
    00000000: 01 c5 01 00

BULK > 03 (URB 458) [850 ms]
BULK < 83 (URB 458)
    00000000: 00

BULK > 02 (URB 459) [851 ms]
    00000000: 01 c6 01 00

BULK > 03 (URB 460) [851 ms]
BULK < 83 (URB 460)
    00000000: 00

BULK > 02 (URB 461) [851 ms]
    00000000: 01 c7 01 00

BULK > 03 (URB 462) [852 ms]
BULK < 83 (URB 462)
    00000000: 00

BULK > 02 (URB 463) [852 ms]
    00000000: 01 c8 01 00

BULK > 03 (URB 464) [852 ms]
BULK < 83 (URB 464)
    00000000: 00

BULK > 02 (URB 465) [852 ms]
    00000000: 01 c9 01 00

BULK > 03 (URB 466) [853 ms]
BULK < 83 (URB 466)
    00000000: 00

BULK > 02 (URB 467) [853 ms]
    00000000: 01 ca 01 00

BULK > 03 (URB 468) [853 ms]
BULK < 83 (URB 468)
    00000000: 00

BULK > 02 (URB 469) [854 ms]
    00000000: 01 cb 01 00

BULK > 03 (URB 470) [854 ms]
BULK < 83 (URB 470)
    00000000: 00

BULK > 02 (URB 471) [854 ms]
    00000000: 01 cc 01 00

BULK > 03 (URB 472) [854 ms]
BULK < 83 (URB 472)
    00000000: 00

BULK > 02 (URB 473) [855 ms]
    00000000: 01 cd 01 00

BULK > 03 (URB 474) [855 ms]
BULK < 83 (URB 474)
    00000000: 00

BULK > 02 (URB 475) [855 ms]
    00000000: 01 ce 01 00

BULK > 03 (URB 476) [855 ms]
BULK < 83 (URB 476)
    00000000: 00

BULK > 02 (URB 477) [856 ms]
    00000000: 01 cf 01 00

BULK > 03 (URB 478) [856 ms]
BULK < 83 (URB 478)
    00000000: 00

BULK > 02 (URB 479) [856 ms]
    00000000: 01 d0 01 00

BULK > 03 (URB 480) [857 ms]
BULK < 83 (URB 480)
    00000000: 81

BULK > 02 (URB 481) [857 ms]
    00000000: 01 d1 01 00

BULK > 03 (URB 482) [857 ms]
BULK < 83 (URB 482)
    00000000: 00

BULK > 02 (URB 483) [857 ms]
    00000000: 01 d2 01 00

BULK > 03 (URB 484) [858 ms]
BULK < 83 (URB 484)
    00000000: 00

BULK > 02 (URB 485) [858 ms]
    00000000: 01 d3 01 00

BULK > 03 (URB 486) [858 ms]
BULK < 83 (URB 486)
    00000000: 00

BULK > 02 (URB 487) [858 ms]
    00000000: 01 d4 01 00

BULK > 03 (URB 488) [859 ms]
BULK < 83 (URB 488)
    00000000: 00

BULK > 02 (URB 489) [859 ms]
    00000000: 01 d5 01 00

BULK > 03 (URB 490) [859 ms]
BULK < 83 (URB 490)
    00000000: 00

BULK > 02 (URB 491) [860 ms]
    00000000: 01 d6 01 00

BULK > 03 (URB 492) [860 ms]
BULK < 83 (URB 492)
    00000000: 00

BULK > 02 (URB 493) [860 ms]
    00000000: 01 d7 01 00

BULK > 03 (URB 494) [860 ms]
BULK < 83 (URB 494)
    00000000: 00

BULK > 02 (URB 495) [861 ms]
    00000000: 01 d8 01 00

BULK > 03 (URB 496) [861 ms]
BULK < 83 (URB 496)
    00000000: 00

BULK > 02 (URB 497) [861 ms]
    00000000: 01 d9 01 00

BULK > 03 (URB 498) [862 ms]
BULK < 83 (URB 498)
    00000000: 00

BULK > 02 (URB 499) [862 ms]
    00000000: 01 da 01 00

BULK > 03 (URB 500) [862 ms]
BULK < 83 (URB 500)
    00000000: 00

BULK > 02 (URB 501) [862 ms]
    00000000: 01 db 01 00

BULK > 03 (URB 502) [863 ms]
BULK < 83 (URB 502)
    00000000: 00

BULK > 02 (URB 503) [863 ms]
    00000000: 01 dc 01 00

BULK > 03 (URB 504) [863 ms]
BULK < 83 (URB 504)
    00000000: 00

BULK > 02 (URB 505) [864 ms]
    00000000: 01 dd 01 00

BULK > 03 (URB 506) [864 ms]
BULK < 83 (URB 506)
    00000000: 00

BULK > 02 (URB 507) [864 ms]
    00000000: 01 de 01 00

BULK > 03 (URB 508) [864 ms]
BULK < 83 (URB 508)
    00000000: 00

BULK > 02 (URB 509) [865 ms]
    00000000: 01 df 01 00

BULK > 03 (URB 510) [865 ms]
BULK < 83 (URB 510)
    00000000: 00

BULK > 02 (URB 511) [865 ms]
    00000000: 01 e0 01 00

BULK > 03 (URB 512) [865 ms]
BULK < 83 (URB 512)
    00000000: 00

BULK > 02 (URB 513) [866 ms]
    00000000: 01 e1 01 00

BULK > 03 (URB 514) [866 ms]
BULK < 83 (URB 514)
    00000000: 00

BULK > 02 (URB 515) [866 ms]
    00000000: 01 e2 01 00

BULK > 03 (URB 516) [867 ms]
BULK < 83 (URB 516)
    00000000: 00

BULK > 02 (URB 517) [867 ms]
    00000000: 01 e3 01 00

BULK > 03 (URB 518) [867 ms]
BULK < 83 (URB 518)
    00000000: 00

BULK > 02 (URB 519) [867 ms]
    00000000: 01 e4 01 00

BULK > 03 (URB 520) [868 ms]
BULK < 83 (URB 520)
    00000000: 00

BULK > 02 (URB 521) [868 ms]
    00000000: 01 e5 01 00

BULK > 03 (URB 522) [868 ms]
BULK < 83 (URB 522)
    00000000: 00

BULK > 02 (URB 523) [869 ms]
    00000000: 01 e6 01 00

BULK > 03 (URB 524) [869 ms]
BULK < 83 (URB 524)
    00000000: 00

BULK > 02 (URB 525) [869 ms]
    00000000: 01 e7 01 00

BULK > 03 (URB 526) [869 ms]
BULK < 83 (URB 526)
    00000000: 00

BULK > 02 (URB 527) [870 ms]
    00000000: 01 e8 01 00

BULK > 03 (URB 528) [870 ms]
BULK < 83 (URB 528)
    00000000: 00

BULK > 02 (URB 529) [870 ms]
    00000000: 01 e9 01 00

BULK > 03 (URB 530) [870 ms]
BULK < 83 (URB 530)
    00000000: 00

BULK > 02 (URB 531) [871 ms]
    00000000: 01 ea 01 00

BULK > 03 (URB 532) [871 ms]
BULK < 83 (URB 532)
    00000000: 00

BULK > 02 (URB 533) [871 ms]
    00000000: 01 eb 01 00

BULK > 03 (URB 534) [872 ms]
BULK < 83 (URB 534)
    00000000: 00

BULK > 02 (URB 535) [872 ms]
    00000000: 01 ec 01 00

BULK > 03 (URB 536) [872 ms]
BULK < 83 (URB 536)
    00000000: 00

BULK > 02 (URB 537) [872 ms]
    00000000: 01 ed 01 00

BULK > 03 (URB 538) [873 ms]
BULK < 83 (URB 538)
    00000000: 00

BULK > 02 (URB 539) [873 ms]
    00000000: 01 ee 01 00

BULK > 03 (URB 540) [873 ms]
BULK < 83 (URB 540)
    00000000: 00

BULK > 02 (URB 541) [874 ms]
    00000000: 01 ef 01 00

BULK > 03 (URB 542) [874 ms]
BULK < 83 (URB 542)
    00000000: 00

BULK > 02 (URB 543) [874 ms]
    00000000: 01 f0 01 00

BULK > 03 (URB 544) [875 ms]
BULK < 83 (URB 544)
    00000000: 00

BULK > 02 (URB 545) [875 ms]
    00000000: 01 f1 01 00

BULK > 03 (URB 546) [875 ms]
BULK < 83 (URB 546)
    00000000: 80

BULK > 02 (URB 547) [875 ms]
    00000000: 01 f2 01 00

BULK > 03 (URB 548) [876 ms]
BULK < 83 (URB 548)
    00000000: 00

BULK > 02 (URB 549) [876 ms]
    00000000: 01 f3 01 00

BULK > 03 (URB 550) [876 ms]
BULK < 83 (URB 550)
    00000000: 00

BULK > 02 (URB 551) [877 ms]
    00000000: 01 f4 01 00

BULK > 03 (URB 552) [877 ms]
BULK < 83 (URB 552)
    00000000: 00

BULK > 02 (URB 553) [877 ms]
    00000000: 01 f5 01 00

BULK > 03 (URB 554) [877 ms]
BULK < 83 (URB 554)
    00000000: 00

BULK > 02 (URB 555) [878 ms]
    00000000: 01 f6 01 00

BULK > 03 (URB 556) [878 ms]
BULK < 83 (URB 556)
    00000000: 00

BULK > 02 (URB 557) [878 ms]
    00000000: 01 f7 01 00

BULK > 03 (URB 558) [878 ms]
BULK < 83 (URB 558)
    00000000: 00

BULK > 02 (URB 559) [879 ms]
    00000000: 01 f8 01 00

BULK > 03 (URB 560) [879 ms]
BULK < 83 (URB 560)
    00000000: 00

BULK > 02 (URB 561) [879 ms]
    00000000: 01 f9 01 00

BULK > 03 (URB 562) [880 ms]
BULK < 83 (URB 562)
    00000000: 00

BULK > 02 (URB 563) [880 ms]
    00000000: 01 fa 01 00

BULK > 03 (URB 564) [880 ms]
BULK < 83 (URB 564)
    00000000: 00

BULK > 02 (URB 565) [881 ms]
    00000000: 01 fb 01 00

BULK > 03 (URB 566) [881 ms]
BULK < 83 (URB 566)
    00000000: 00

BULK > 02 (URB 567) [882 ms]
    00000000: 01 fc 01 00

BULK > 03 (URB 568) [882 ms]
BULK < 83 (URB 568)
    00000000: 00

BULK > 02 (URB 569) [883 ms]
    00000000: 01 fd 01 00

BULK > 03 (URB 570) [883 ms]
BULK < 83 (URB 570)
    00000000: 00

BULK > 02 (URB 571) [883 ms]
    00000000: 01 fe 01 00

BULK > 03 (URB 572) [884 ms]
BULK < 83 (URB 572)
    00000000: 00

BULK > 02 (URB 573) [894 ms]
    00000000: 00 60 01 00 01

BULK > 02 (URB 574) [895 ms]
    00000000: 00 10 01 00 04

BULK > 02 (URB 575) [1892 ms]
    00000000: 00 9b 01 00 01

BULK > 02 (URB 576) [1892 ms]
    00000000: 01 46 01 00

BULK > 03 (URB 577) [1893 ms]
BULK < 83 (URB 577)
    00000000: 08

BULK > 02 (URB 578) [1893 ms]
    00000000: 00 80 01 00 12

BULK > 02 (URB 579) [1893 ms]
    00000000: 00 11 01 00 00

BULK > 02 (URB 580) [1894 ms]
    00000000: 00 9b 01 00 01

BULK > 02 (URB 581) [1912 ms]
    00000000: 01 46 01 00

BULK > 03 (URB 582) [1912 ms]
BULK < 83 (URB 582)
    00000000: 08

BULK > 02 (URB 583) [1913 ms]
    00000000: 01 46 01 00

BULK > 03 (URB 584) [1913 ms]
BULK < 83 (URB 584)
    00000000: 08

BULK > 02 (URB 585) [1913 ms]
    00000000: 01 46 01 00

BULK > 03 (URB 586) [1914 ms]
BULK < 83 (URB 586)
    00000000: 08

BULK > 02 (URB 587) [1914 ms]
    00000000: 00 80 01 00 12

BULK > 02 (URB 588) [1914 ms]
    00000000: 00 11 01 00 00

BULK > 02 (URB 589) [1915 ms]
    00000000: 00 01 01 00 28

BULK > 02 (URB 590) [1915 ms]
    00000000: 00 04 01 00 0c

BULK > 02 (URB 591) [1915 ms]
    00000000: 00 05 01 00 00

BULK > 02 (URB 592) [1916 ms]
    00000000: 00 06 01 00 00

BULK > 02 (URB 593) [1916 ms]
    00000000: 00 01 01 00 29

BULK > 02 (URB 594) [1916 ms]
    00000000: 00 71 01 00 01

BULK > 02 (URB 595) [1917 ms]
    00000000: 02 30 01 00 11

BULK > 02 (URB 596) [1917 ms]
    00000000: 00 71 01 00 16

BULK > 02 (URB 597) [1918 ms]
    00000000: 00 72 01 00 01

BULK > 02 (URB 598) [1918 ms]
    00000000: 00 73 01 00 00

BULK > 02 (URB 599) [1918 ms]
    00000000: 00 74 01 00 00

BULK > 02 (URB 600) [1919 ms]
    00000000: 00 75 01 00 00

BULK > 02 (URB 601) [1919 ms]
    00000000: 00 76 01 00 00

BULK > 02 (URB 602) [1919 ms]
    00000000: 02 39 01 00 40

BULK > 02 (URB 603) [1920 ms]
    00000000: 02 38 01 00 89

BULK > 02 (URB 604) [1920 ms]
    00000000: 02 3c 01 00 2f

BULK > 02 (URB 605) [1921 ms]
    00000000: 02 64 01 00 20

BULK > 02 (URB 606) [1921 ms]
    00000000: 04 70 00 01 00 01 02 03 04 05 06 07 08 09 0a 0b
    00000010: 0c 0d 0e 0f 10 11 12 13 14 15 16 17 18 19 1a 1b
    00000020: 1c 1d 1e 1f 20 21 22 23 24 25 26 27 28 29 2a 2b
    00000030: 2c 2d 2e 2f 30 31 32 33 34 35 36 37 38 39 3a 3b
    00000040: 3c 3d 3e 3f 40 41 42 43 44 45 46 47 48 49 4a 4b
    00000050: 4c 4d 4e 4f 50 51 52 53 54 55 56 57 58 59 5a 5b
    00000060: 5c 5d 5e 5f 60 61 62 63 64 65 66 67 68 69 6a 6b
    00000070: 6c 6d 6e 6f 70 71 72 73 74 75 76 77 78 79 7a 7b
    00000080: 7c 7d 7e 7f 80 81 82 83 84 85 86 87 88 89 8a 8b
    00000090: 8c 8d 8e 8f 90 91 92 93 94 95 96 97 98 99 9a 9b
    000000a0: 9c 9d 9e 9f a0 a1 a2 a3 a4 a5 a6 a7 a8 a9 aa ab
    000000b0: ac ad ae af b0 b1 b2 b3 b4 b5 b6 b7 b8 b9 ba bb
    000000c0: bc bd be bf c0 c1 c2 c3 c4 c5 c6 c7 c8 c9 ca cb
    000000d0: cc cd ce cf d0 d1 d2 d3 d4 d5 d6 d7 d8 d9 da db
    000000e0: dc dd de df e0 e1 e2 e3 e4 e5 e6 e7 e8 e9 ea eb
    000000f0: ec ed ee ef f0 f1 f2 f3 f4 f5 f6 f7 f8 f9 fa fb
    00000100: fc fd fe ff

BULK > 02 (URB 607) [1921 ms]
    00000000: 00 71 01 00 01

BULK > 02 (URB 608) [1922 ms]
    00000000: 02 30 01 00 11

BULK > 02 (URB 609) [1922 ms]
    00000000: 00 71 01 00 16

BULK > 02 (URB 610) [1922 ms]
    00000000: 00 72 01 00 01

BULK > 02 (URB 611) [1923 ms]
    00000000: 00 73 01 00 00

BULK > 02 (URB 612) [1923 ms]
    00000000: 00 74 01 00 00

BULK > 02 (URB 613) [1923 ms]
    00000000: 00 75 01 00 01

BULK > 02 (URB 614) [1924 ms]
    00000000: 00 76 01 00 00

BULK > 02 (URB 615) [1924 ms]
    00000000: 02 39 01 00 40

BULK > 02 (URB 616) [1925 ms]
    00000000: 02 38 01 00 89

BULK > 02 (URB 617) [1925 ms]
    00000000: 02 3c 01 00 2f

BULK > 02 (URB 618) [1925 ms]
    00000000: 02 64 01 00 20

BULK > 02 (URB 619) [1926 ms]
    00000000: 04 70 00 01 00 01 02 03 04 05 06 07 08 09 0a 0b
    00000010: 0c 0d 0e 0f 10 11 12 13 14 15 16 17 18 19 1a 1b
    00000020: 1c 1d 1e 1f 20 21 22 23 24 25 26 27 28 29 2a 2b
    00000030: 2c 2d 2e 2f 30 31 32 33 34 35 36 37 38 39 3a 3b
    00000040: 3c 3d 3e 3f 40 41 42 43 44 45 46 47 48 49 4a 4b
    00000050: 4c 4d 4e 4f 50 51 52 53 54 55 56 57 58 59 5a 5b
    00000060: 5c 5d 5e 5f 60 61 62 63 64 65 66 67 68 69 6a 6b
    00000070: 6c 6d 6e 6f 70 71 72 73 74 75 76 77 78 79 7a 7b
    00000080: 7c 7d 7e 7f 80 81 82 83 84 85 86 87 88 89 8a 8b
    00000090: 8c 8d 8e 8f 90 91 92 93 94 95 96 97 98 99 9a 9b
    000000a0: 9c 9d 9e 9f a0 a1 a2 a3 a4 a5 a6 a7 a8 a9 aa ab
    000000b0: ac ad ae af b0 b1 b2 b3 b4 b5 b6 b7 b8 b9 ba bb
    000000c0: bc bd be bf c0 c1 c2 c3 c4 c5 c6 c7 c8 c9 ca cb
    000000d0: cc cd ce cf d0 d1 d2 d3 d4 d5 d6 d7 d8 d9 da db
    000000e0: dc dd de df e0 e1 e2 e3 e4 e5 e6 e7 e8 e9 ea eb
    000000f0: ec ed ee ef f0 f1 f2 f3 f4 f5 f6 f7 f8 f9 fa fb
    00000100: fc fd fe ff

BULK > 02 (URB 620) [1926 ms]
    00000000: 00 71 01 00 01

BULK > 02 (URB 621) [1926 ms]
    00000000: 02 30 01 00 11

BULK > 02 (URB 622) [1927 ms]
    00000000: 00 71 01 00 16

BULK > 02 (URB 623) [1927 ms]
    00000000: 00 72 01 00 01

BULK > 02 (URB 624) [1927 ms]
    00000000: 00 73 01 00 00

BULK > 02 (URB 625) [1928 ms]
    00000000: 00 74 01 00 00

BULK > 02 (URB 626) [1928 ms]
    00000000: 00 75 01 00 02

BULK > 02 (URB 627) [1929 ms]
    00000000: 00 76 01 00 00

BULK > 02 (URB 628) [1929 ms]
    00000000: 02 39 01 00 40

BULK > 02 (URB 629) [1929 ms]
    00000000: 02 38 01 00 89

BULK > 02 (URB 630) [1930 ms]
    00000000: 02 3c 01 00 2f

BULK > 02 (URB 631) [1930 ms]
    00000000: 02 64 01 00 20

BULK > 02 (URB 632) [1930 ms]
    00000000: 04 70 00 01 00 01 02 03 04 05 06 07 08 09 0a 0b
    00000010: 0c 0d 0e 0f 10 11 12 13 14 15 16 17 18 19 1a 1b
    00000020: 1c 1d 1e 1f 20 21 22 23 24 25 26 27 28 29 2a 2b
    00000030: 2c 2d 2e 2f 30 31 32 33 34 35 36 37 38 39 3a 3b
    00000040: 3c 3d 3e 3f 40 41 42 43 44 45 46 47 48 49 4a 4b
    00000050: 4c 4d 4e 4f 50 51 52 53 54 55 56 57 58 59 5a 5b
    00000060: 5c 5d 5e 5f 60 61 62 63 64 65 66 67 68 69 6a 6b
    00000070: 6c 6d 6e 6f 70 71 72 73 74 75 76 77 78 79 7a 7b
    00000080: 7c 7d 7e 7f 80 81 82 83 84 85 86 87 88 89 8a 8b
    00000090: 8c 8d 8e 8f 90 91 92 93 94 95 96 97 98 99 9a 9b
    000000a0: 9c 9d 9e 9f a0 a1 a2 a3 a4 a5 a6 a7 a8 a9 aa ab
    000000b0: ac ad ae af b0 b1 b2 b3 b4 b5 b6 b7 b8 b9 ba bb
    000000c0: bc bd be bf c0 c1 c2 c3 c4 c5 c6 c7 c8 c9 ca cb
    000000d0: cc cd ce cf d0 d1 d2 d3 d4 d5 d6 d7 d8 d9 da db
    000000e0: dc dd de df e0 e1 e2 e3 e4 e5 e6 e7 e8 e9 ea eb
    000000f0: ec ed ee ef f0 f1 f2 f3 f4 f5 f6 f7 f8 f9 fa fb
    00000100: fc fd fe ff

BULK > 02 (URB 633) [1931 ms]
    00000000: 00 07 01 00 00

BULK > 02 (URB 634) [1931 ms]
    00000000: 00 07 01 00 00

BULK > 02 (URB 635) [1932 ms]
    00000000: 00 08 01 00 00

BULK > 02 (URB 636) [1932 ms]
    00000000: 00 09 01 00 69

BULK > 02 (URB 637) [1932 ms]
    00000000: 00 0a 01 00 00

BULK > 02 (URB 638) [1933 ms]
    00000000: 00 0b 01 00 a8

BULK > 02 (URB 639) [1933 ms]
    00000000: 00 a0 01 00 1d

BULK > 02 (URB 640) [1933 ms]
    00000000: 00 a1 01 00 00

BULK > 02 (URB 641) [1934 ms]
    00000000: 00 a2 01 00 00

BULK > 02 (URB 642) [1934 ms]
    00000000: 00 a3 01 00 10

BULK > 02 (URB 643) [1935 ms]
    00000000: 00 64 01 00 00

BULK > 02 (URB 644) [1935 ms]
    00000000: 00 65 01 00 00

BULK > 02 (URB 645) [1935 ms]
    00000000: 00 61 01 00 00

BULK > 02 (URB 646) [1936 ms]
    00000000: 00 62 01 00 2e

BULK > 02 (URB 647) [1936 ms]
    00000000: 00 63 01 00 00

BULK > 02 (URB 648) [1936 ms]
    00000000: 00 50 01 00 00

BULK > 02 (URB 649) [1937 ms]
    00000000: 00 50 01 00 00

BULK > 02 (URB 650) [1937 ms]
    00000000: 00 51 01 00 07

BULK > 02 (URB 651) [1937 ms]
    00000000: 00 5a 01 00 32

BULK > 02 (URB 652) [1938 ms]
    00000000: 00 5b 01 00 32

BULK > 02 (URB 653) [1938 ms]
    00000000: 00 5c 01 00 32

BULK > 02 (URB 654) [1939 ms]
    00000000: 00 5d 01 00 32

BULK > 02 (URB 655) [1939 ms]
    00000000: 00 52 01 00 00

BULK > 02 (URB 656) [1939 ms]
    00000000: 00 53 01 00 01

BULK > 02 (URB 657) [1940 ms]
    00000000: 00 54 01 00 00

BULK > 02 (URB 658) [1940 ms]
    00000000: 00 55 01 00 01

BULK > 02 (URB 659) [1940 ms]
    00000000: 00 56 01 00 00

BULK > 02 (URB 660) [1941 ms]
    00000000: 00 57 01 00 01

BULK > 02 (URB 661) [1941 ms]
    00000000: 00 58 01 00 00

BULK > 02 (URB 662) [1942 ms]
    00000000: 00 59 01 00 01

BULK > 02 (URB 663) [1942 ms]
    00000000: 00 5e 01 00 02

BULK > 02 (URB 664) [1942 ms]
    00000000: 00 5f 01 00 00

BULK > 02 (URB 665) [1943 ms]
    00000000: 00 5f 01 00 03

BULK > 02 (URB 666) [1943 ms]
    00000000: 00 60 01 00 11

BULK > 02 (URB 667) [1943 ms]
    00000000: 00 60 01 00 15

BULK > 02 (URB 668) [1944 ms]
    00000000: 00 60 01 00 15

BULK > 02 (URB 669) [1944 ms]
    00000000: 00 60 01 00 15

BULK > 02 (URB 670) [1945 ms]
    00000000: 00 50 01 00 04

BULK > 02 (URB 671) [1945 ms]
    00000000: 00 51 01 00 07

BULK > 02 (URB 672) [1945 ms]
    00000000: 00 81 01 00 28

BULK > 02 (URB 673) [1946 ms]
    00000000: 00 81 01 00 29

BULK > 02 (URB 674) [1946 ms]
    00000000: 00 82 01 00 08

BULK > 02 (URB 675) [1947 ms]
    00000000: 00 82 01 00 09

BULK > 02 (URB 676) [1947 ms]
    00000000: 00 83 01 00 02

BULK > 02 (URB 677) [1947 ms]
    00000000: 00 84 01 00 06

BULK > 02 (URB 678) [1948 ms]
    00000000: 00 80 01 00 12

BULK > 02 (URB 679) [1948 ms]
    00000000: 00 80 01 00 12

BULK > 02 (URB 680) [1949 ms]
    00000000: 00 b0 01 00 00

BULK > 02 (URB 681) [1949 ms]
    00000000: 00 10 01 00 14

BULK > 02 (URB 682) [1949 ms]
    00000000: 00 10 01 00 14

BULK > 02 (URB 683) [1950 ms]
    00000000: 00 9b 01 00 03

BULK > 02 (URB 684) [1950 ms]
    00000000: 00 10 01 00 14

BULK > 02 (URB 685) [1950 ms]
    00000000: 00 11 01 00 80

BULK > 02 (URB 686) [1951 ms]
    00000000: 00 11 01 00 80

BULK > 02 (URB 687) [1951 ms]
    00000000: 00 11 01 00 80

BULK > 02 (URB 688) [1951 ms]
    00000000: 00 11 01 00 80

BULK > 02 (URB 689) [1952 ms]
    00000000: 00 11 01 00 80

BULK > 02 (URB 690) [1952 ms]
    00000000: 00 11 01 00 82

BULK > 02 (URB 691) [1952 ms]
    00000000: 00 11 01 00 83

BULK > 02 (URB 692) [1953 ms]
    00000000: 00 12 01 00 01

BULK > 02 (URB 693) [1953 ms]
    00000000: 00 13 01 00 01

BULK > 02 (URB 694) [1953 ms]
    00000000: 00 16 01 00 01

BULK > 02 (URB 695) [1954 ms]
    00000000: 00 21 01 00 06

BULK > 02 (URB 696) [1954 ms]
    00000000: 00 22 01 00 01

BULK > 02 (URB 697) [1955 ms]
    00000000: 00 20 01 00 06

BULK > 02 (URB 698) [1955 ms]
    00000000: 00 1d 01 00 00

BULK > 02 (URB 699) [1955 ms]
    00000000: 00 1e 01 00 00

BULK > 02 (URB 700) [1956 ms]
    00000000: 00 1f 01 00 02

BULK > 02 (URB 701) [1956 ms]
    00000000: 00 66 01 00 00

BULK > 02 (URB 702) [1956 ms]
    00000000: 00 67 01 00 00

BULK > 02 (URB 703) [1957 ms]
    00000000: 00 68 01 00 06

BULK > 02 (URB 704) [1957 ms]
    00000000: 00 1a 01 00 00

BULK > 02 (URB 705) [1957 ms]
    00000000: 00 1b 01 00 00

BULK > 02 (URB 706) [1958 ms]
    00000000: 00 1c 01 00 02

BULK > 02 (URB 707) [1958 ms]
    00000000: 00 15 01 00 83

BULK > 02 (URB 708) [1959 ms]
    00000000: 00 14 01 00 7c

BULK > 02 (URB 709) [1959 ms]
    00000000: 00 17 01 00 02

BULK > 02 (URB 710) [1959 ms]
    00000000: 00 43 01 00 1c

BULK > 02 (URB 711) [1960 ms]
    00000000: 00 44 01 00 9c

BULK > 02 (URB 712) [1960 ms]
    00000000: 00 45 01 00 38

BULK > 02 (URB 713) [1960 ms]
    00000000: 00 23 01 00 28

BULK > 02 (URB 714) [1961 ms]
    00000000: 00 33 01 00 28

BULK > 02 (URB 715) [1961 ms]
    00000000: 00 24 01 00 27

BULK > 02 (URB 716) [1962 ms]
    00000000: 00 34 01 00 27

BULK > 02 (URB 717) [1962 ms]
    00000000: 00 25 01 00 25

BULK > 02 (URB 718) [1962 ms]
    00000000: 00 35 01 00 25

BULK > 02 (URB 719) [1963 ms]
    00000000: 00 26 01 00 21

BULK > 02 (URB 720) [1963 ms]
    00000000: 00 36 01 00 21

BULK > 02 (URB 721) [1963 ms]
    00000000: 00 27 01 00 1c

BULK > 02 (URB 722) [1964 ms]
    00000000: 00 37 01 00 1c

BULK > 02 (URB 723) [1964 ms]
    00000000: 00 28 01 00 16

BULK > 02 (URB 724) [1964 ms]
    00000000: 00 38 01 00 16

BULK > 02 (URB 725) [1965 ms]
    00000000: 00 29 01 00 0f

BULK > 02 (URB 726) [1965 ms]
    00000000: 00 39 01 00 0f

BULK > 02 (URB 727) [1965 ms]
    00000000: 00 2a 01 00 08

BULK > 02 (URB 728) [1966 ms]
    00000000: 00 3a 01 00 08

BULK > 02 (URB 729) [1966 ms]
    00000000: 00 2b 01 00 00

BULK > 02 (URB 730) [1966 ms]
    00000000: 00 3b 01 00 00

BULK > 02 (URB 731) [1967 ms]
    00000000: 00 2c 01 00 08

BULK > 02 (URB 732) [1967 ms]
    00000000: 00 3c 01 00 08

BULK > 02 (URB 733) [1968 ms]
    00000000: 00 2d 01 00 0f

BULK > 02 (URB 734) [1968 ms]
    00000000: 00 3d 01 00 0f

BULK > 02 (URB 735) [1968 ms]
    00000000: 00 2e 01 00 16

BULK > 02 (URB 736) [1969 ms]
    00000000: 00 3e 01 00 16

BULK > 02 (URB 737) [1969 ms]
    00000000: 00 2f 01 00 1c

BULK > 02 (URB 738) [1969 ms]
    00000000: 00 3f 01 00 1c

BULK > 02 (URB 739) [1970 ms]
    00000000: 00 30 01 00 21

BULK > 02 (URB 740) [1970 ms]
    00000000: 00 40 01 00 21

BULK > 02 (URB 741) [1971 ms]
    00000000: 00 31 01 00 25

BULK > 02 (URB 742) [1971 ms]
    00000000: 00 41 01 00 25

BULK > 02 (URB 743) [1971 ms]
    00000000: 00 32 01 00 27

BULK > 02 (URB 744) [1972 ms]
    00000000: 00 42 01 00 27

BULK > 02 (URB 745) [1972 ms]
    00000000: 00 ca 01 00 01

BULK > 02 (URB 746) [1972 ms]
    00000000: 00 ca 01 00 01

BULK > 02 (URB 747) [1973 ms]
    00000000: 00 ca 01 00 11

BULK > 02 (URB 748) [1973 ms]
    00000000: 00 18 01 00 00

BULK > 02 (URB 749) [1973 ms]
    00000000: 00 71 01 00 01

BULK > 02 (URB 750) [1974 ms]
    00000000: 02 30 01 00 11

BULK > 02 (URB 751) [1974 ms]
    00000000: 00 71 01 00 14

BULK > 02 (URB 752) [1975 ms]
    00000000: 00 72 01 00 00

BULK > 02 (URB 753) [1975 ms]
    00000000: 00 73 01 00 10

BULK > 02 (URB 754) [1975 ms]
    00000000: 00 74 01 00 03

BULK > 02 (URB 755) [1976 ms]
    00000000: 00 75 01 00 00

BULK > 02 (URB 756) [1976 ms]
    00000000: 00 76 01 00 00

BULK > 02 (URB 757) [1977 ms]
    00000000: 02 39 01 00 40

BULK > 02 (URB 758) [1977 ms]
    00000000: 02 38 01 00 89

BULK > 02 (URB 759) [1977 ms]
    00000000: 02 3c 01 00 2f

BULK > 02 (URB 760) [1978 ms]
    00000000: 02 64 01 00 20

BULK > 02 (URB 761) [1978 ms]
    00000000: 04 70 04 00 80 25 01 00 04 05 06 07 08 09 0a 0b
    00000010: 0c 0d 0e 0f

BULK > 02 (URB 762) [1978 ms]
    00000000: 00 71 01 00 01

BULK > 02 (URB 763) [1979 ms]
    00000000: 02 30 01 00 11

BULK > 02 (URB 764) [1979 ms]
    00000000: 00 71 01 00 14

BULK > 02 (URB 765) [1979 ms]
    00000000: 00 72 01 00 00

BULK > 02 (URB 766) [1980 ms]
    00000000: 00 73 01 00 10

BULK > 02 (URB 767) [1980 ms]
    00000000: 00 74 01 00 03

BULK > 02 (URB 768) [1980 ms]
    00000000: 00 75 01 00 02

BULK > 02 (URB 769) [1981 ms]
    00000000: 00 76 01 00 00

BULK > 02 (URB 770) [1981 ms]
    00000000: 02 39 01 00 40

BULK > 02 (URB 771) [1982 ms]
    00000000: 02 38 01 00 89

BULK > 02 (URB 772) [1982 ms]
    00000000: 02 3c 01 00 2f

BULK > 02 (URB 773) [1982 ms]
    00000000: 02 64 01 00 20

BULK > 02 (URB 774) [1983 ms]
    00000000: 04 70 04 00 80 25 01 00 04 05 06 07 08 09 0a 0b
    00000010: 0c 0d 0e 0f

BULK > 02 (URB 775) [1983 ms]
    00000000: 00 71 01 00 01

BULK > 02 (URB 776) [1983 ms]
    00000000: 02 30 01 00 11

BULK > 02 (URB 777) [1984 ms]
    00000000: 00 71 01 00 14

BULK > 02 (URB 778) [1984 ms]
    00000000: 00 72 01 00 00

BULK > 02 (URB 779) [1984 ms]
    00000000: 00 73 01 00 20

BULK > 02 (URB 780) [1985 ms]
    00000000: 00 74 01 00 03

BULK > 02 (URB 781) [1985 ms]
    00000000: 00 75 01 00 04

BULK > 02 (URB 782) [1986 ms]
    00000000: 00 76 01 00 00

BULK > 02 (URB 783) [1986 ms]
    00000000: 02 39 01 00 40

BULK > 02 (URB 784) [1986 ms]
    00000000: 02 38 01 00 89

BULK > 02 (URB 785) [1987 ms]
    00000000: 02 3c 01 00 2f

BULK > 02 (URB 786) [1987 ms]
    00000000: 02 64 01 00 20

BULK > 02 (URB 787) [1987 ms]
    00000000: 04 70 18 00 80 25 0a 00 05 00 03 00 02 00 02 00
    00000010: 01 00 01 00 01 00 01 00 01 00 01 00 18 19 1a 1b
    00000020: 1c 1d 1e 1f

BULK > 02 (URB 788) [1988 ms]
    00000000: 00 71 01 00 01

BULK > 02 (URB 789) [1988 ms]
    00000000: 02 30 01 00 11

BULK > 02 (URB 790) [1988 ms]
    00000000: 00 71 01 00 14

BULK > 02 (URB 791) [1989 ms]
    00000000: 00 72 01 00 00

BULK > 02 (URB 792) [1989 ms]
    00000000: 00 73 01 00 10

BULK > 02 (URB 793) [1990 ms]
    00000000: 00 74 01 00 03

BULK > 02 (URB 794) [1990 ms]
    00000000: 00 75 01 00 06

BULK > 02 (URB 795) [1990 ms]
    00000000: 00 76 01 00 00

BULK > 02 (URB 796) [1991 ms]
    00000000: 02 39 01 00 40

BULK > 02 (URB 797) [1991 ms]
    00000000: 02 38 01 00 89

BULK > 02 (URB 798) [1992 ms]
    00000000: 02 3c 01 00 2f

BULK > 02 (URB 799) [1992 ms]
    00000000: 02 64 01 00 20

BULK > 02 (URB 800) [1992 ms]
    00000000: 04 70 04 00 80 25 01 00 05 00 03 00 02 00 02 00
    00000010: 01 00 01 00

BULK > 02 (URB 801) [1993 ms]
    00000000: 00 71 01 00 01

BULK > 02 (URB 802) [1993 ms]
    00000000: 02 30 01 00 11

BULK > 02 (URB 803) [1993 ms]
    00000000: 00 71 01 00 14

BULK > 02 (URB 804) [1994 ms]
    00000000: 00 72 01 00 00

BULK > 02 (URB 805) [1994 ms]
    00000000: 00 73 01 00 20

BULK > 02 (URB 806) [1995 ms]
    00000000: 00 74 01 00 03

BULK > 02 (URB 807) [1995 ms]
    00000000: 00 75 01 00 08

BULK > 02 (URB 808) [1995 ms]
    00000000: 00 76 01 00 00

BULK > 02 (URB 809) [1996 ms]
    00000000: 02 39 01 00 40

BULK > 02 (URB 810) [1996 ms]
    00000000: 02 38 01 00 89

BULK > 02 (URB 811) [1997 ms]
    00000000: 02 3c 01 00 2f

BULK > 02 (URB 812) [1997 ms]
    00000000: 02 64 01 00 20

BULK > 02 (URB 813) [1997 ms]
    00000000: 04 70 18 00 80 25 0a 00 05 00 03 00 02 00 02 00
    00000010: 01 00 01 00 01 00 01 00 01 00 01 00 18 19 1a 1b
    00000020: 1c 1d 1e 1f

BULK > 02 (URB 814) [1998 ms]
    00000000: 00 10 01 00 15

BULK > 02 (URB 815) [1998 ms]
    00000000: 01 4a 01 00

BULK > 03 (URB 816) [1998 ms]
BULK < 83 (URB 816)
    00000000: 00

BULK > 02 (URB 817) [1999 ms]
    00000000: 01 4b 01 00

BULK > 03 (URB 818) [1999 ms]
BULK < 83 (URB 818)
    00000000: 00

BULK > 02 (URB 819) [2000 ms]
    00000000: 01 4c 01 00

BULK > 03 (URB 820) [2000 ms]
BULK < 83 (URB 820)
    00000000: 00

BULK > 02 (URB 821) [2000 ms]
    00000000: 00 11 01 00 93

BULK > 02 (URB 822) [2001 ms]
    00000000: 00 60 01 00 15

BULK > 02 (URB 823) [2001 ms]
    00000000: 00 80 01 00 12

BULK > 02 (URB 824) [2001 ms]
    00000000: 00 03 01 00 01

BULK > 02 (URB 825) [2002 ms]
    00000000: 00 9b 01 00 03

BULK > 02 (URB 826) [2022 ms]
    00000000: 01 46 01 00

BULK > 03 (URB 827) [2022 ms]
BULK < 83 (URB 827)
    00000000: 08

BULK > 02 (URB 828) [2023 ms]
    00000000: 01 46 01 00

BULK > 03 (URB 829) [2023 ms]
BULK < 83 (URB 829)
    00000000: 08

BULK > 02 (URB 830) [2024 ms]
    00000000: 01 46 01 00

BULK > 03 (URB 831) [2024 ms]
BULK < 83 (URB 831)
    00000000: 08

BULK > 02 (URB 832) [2025 ms]
    00000000: 00 80 01 00 12

BULK > 02 (URB 833) [2025 ms]
    00000000: 00 11 01 00 83

BULK > 02 (URB 834) [2025 ms]
    00000000: 00 01 01 00 29

BULK > 02 (URB 835) [2026 ms]
    00000000: 00 04 01 00 0c

BULK > 02 (URB 836) [2026 ms]
    00000000: 00 05 01 00 00

BULK > 02 (URB 837) [2027 ms]
    00000000: 00 06 01 00 00

BULK > 02 (URB 838) [2027 ms]
    00000000: 00 01 01 00 29

BULK > 02 (URB 839) [2028 ms]
    00000000: 00 71 01 00 01

BULK > 02 (URB 840) [2028 ms]
    00000000: 02 30 01 00 11

BULK > 02 (URB 841) [2028 ms]
    00000000: 00 71 01 00 16

BULK > 02 (URB 842) [2029 ms]
    00000000: 00 72 01 00 01

BULK > 02 (URB 843) [2029 ms]
    00000000: 00 73 01 00 00

BULK > 02 (URB 844) [2030 ms]
    00000000: 00 74 01 00 00

BULK > 02 (URB 845) [2030 ms]
    00000000: 00 75 01 00 00

BULK > 02 (URB 846) [2030 ms]
    00000000: 00 76 01 00 00

BULK > 02 (URB 847) [2031 ms]
    00000000: 02 39 01 00 40

BULK > 02 (URB 848) [2031 ms]
    00000000: 02 38 01 00 89

BULK > 02 (URB 849) [2032 ms]
    00000000: 02 3c 01 00 2f

BULK > 02 (URB 850) [2032 ms]
    00000000: 02 64 01 00 20

BULK > 02 (URB 851) [2033 ms]
    00000000: 04 70 00 01 00 01 02 03 04 05 06 07 08 09 0a 0b
    00000010: 0c 0d 0e 0f 10 11 12 13 14 15 16 17 18 19 1a 1b
    00000020: 1c 1d 1e 1f 20 21 22 23 24 25 26 27 28 29 2a 2b
    00000030: 2c 2d 2e 2f 30 31 32 33 34 35 36 37 38 39 3a 3b
    00000040: 3c 3d 3e 3f 40 41 42 43 44 45 46 47 48 49 4a 4b
    00000050: 4c 4d 4e 4f 50 51 52 53 54 55 56 57 58 59 5a 5b
    00000060: 5c 5d 5e 5f 60 61 62 63 64 65 66 67 68 69 6a 6b
    00000070: 6c 6d 6e 6f 70 71 72 73 74 75 76 77 78 79 7a 7b
    00000080: 7c 7d 7e 7f 80 81 82 83 84 85 86 87 88 89 8a 8b
    00000090: 8c 8d 8e 8f 90 91 92 93 94 95 96 97 98 99 9a 9b
    000000a0: 9c 9d 9e 9f a0 a1 a2 a3 a4 a5 a6 a7 a8 a9 aa ab
    000000b0: ac ad ae af b0 b1 b2 b3 b4 b5 b6 b7 b8 b9 ba bb
    000000c0: bc bd be bf c0 c1 c2 c3 c4 c5 c6 c7 c8 c9 ca cb
    000000d0: cc cd ce cf d0 d1 d2 d3 d4 d5 d6 d7 d8 d9 da db
    000000e0: dc dd de df e0 e1 e2 e3 e4 e5 e6 e7 e8 e9 ea eb
    000000f0: ec ed ee ef f0 f1 f2 f3 f4 f5 f6 f7 f8 f9 fa fb
    00000100: fc fd fe ff

BULK > 02 (URB 852) [2033 ms]
    00000000: 00 71 01 00 01

BULK > 02 (URB 853) [2033 ms]
    00000000: 02 30 01 00 11

BULK > 02 (URB 854) [2034 ms]
    00000000: 00 71 01 00 16

BULK > 02 (URB 855) [2034 ms]
    00000000: 00 72 01 00 01

BULK > 02 (URB 856) [2035 ms]
    00000000: 00 73 01 00 00

BULK > 02 (URB 857) [2035 ms]
    00000000: 00 74 01 00 00

BULK > 02 (URB 858) [2035 ms]
    00000000: 00 75 01 00 01

BULK > 02 (URB 859) [2036 ms]
    00000000: 00 76 01 00 00

BULK > 02 (URB 860) [2036 ms]
    00000000: 02 39 01 00 40

BULK > 02 (URB 861) [2037 ms]
    00000000: 02 38 01 00 89

BULK > 02 (URB 862) [2037 ms]
    00000000: 02 3c 01 00 2f

BULK > 02 (URB 863) [2037 ms]
    00000000: 02 64 01 00 20

BULK > 02 (URB 864) [2038 ms]
    00000000: 04 70 00 01 00 01 02 03 04 05 06 07 08 09 0a 0b
    00000010: 0c 0d 0e 0f 10 11 12 13 14 15 16 17 18 19 1a 1b
    00000020: 1c 1d 1e 1f 20 21 22 23 24 25 26 27 28 29 2a 2b
    00000030: 2c 2d 2e 2f 30 31 32 33 34 35 36 37 38 39 3a 3b
    00000040: 3c 3d 3e 3f 40 41 42 43 44 45 46 47 48 49 4a 4b
    00000050: 4c 4d 4e 4f 50 51 52 53 54 55 56 57 58 59 5a 5b
    00000060: 5c 5d 5e 5f 60 61 62 63 64 65 66 67 68 69 6a 6b
    00000070: 6c 6d 6e 6f 70 71 72 73 74 75 76 77 78 79 7a 7b
    00000080: 7c 7d 7e 7f 80 81 82 83 84 85 86 87 88 89 8a 8b
    00000090: 8c 8d 8e 8f 90 91 92 93 94 95 96 97 98 99 9a 9b
    000000a0: 9c 9d 9e 9f a0 a1 a2 a3 a4 a5 a6 a7 a8 a9 aa ab
    000000b0: ac ad ae af b0 b1 b2 b3 b4 b5 b6 b7 b8 b9 ba bb
    000000c0: bc bd be bf c0 c1 c2 c3 c4 c5 c6 c7 c8 c9 ca cb
    000000d0: cc cd ce cf d0 d1 d2 d3 d4 d5 d6 d7 d8 d9 da db
    000000e0: dc dd de df e0 e1 e2 e3 e4 e5 e6 e7 e8 e9 ea eb
    000000f0: ec ed ee ef f0 f1 f2 f3 f4 f5 f6 f7 f8 f9 fa fb
    00000100: fc fd fe ff

BULK > 02 (URB 865) [2038 ms]
    00000000: 00 71 01 00 01

BULK > 02 (URB 866) [2039 ms]
    00000000: 02 30 01 00 11

BULK > 02 (URB 867) [2039 ms]
    00000000: 00 71 01 00 16

BULK > 02 (URB 868) [2040 ms]
    00000000: 00 72 01 00 01

BULK > 02 (URB 869) [2040 ms]
    00000000: 00 73 01 00 00

BULK > 02 (URB 870) [2040 ms]
    00000000: 00 74 01 00 00

BULK > 02 (URB 871) [2041 ms]
    00000000: 00 75 01 00 02

BULK > 02 (URB 872) [2041 ms]
    00000000: 00 76 01 00 00

BULK > 02 (URB 873) [2042 ms]
    00000000: 02 39 01 00 40

BULK > 02 (URB 874) [2042 ms]
    00000000: 02 38 01 00 89

BULK > 02 (URB 875) [2043 ms]
    00000000: 02 3c 01 00 2f

BULK > 02 (URB 876) [2043 ms]
    00000000: 02 64 01 00 20

BULK > 02 (URB 877) [2043 ms]
    00000000: 04 70 00 01 00 01 02 03 04 05 06 07 08 09 0a 0b
    00000010: 0c 0d 0e 0f 10 11 12 13 14 15 16 17 18 19 1a 1b
    00000020: 1c 1d 1e 1f 20 21 22 23 24 25 26 27 28 29 2a 2b
    00000030: 2c 2d 2e 2f 30 31 32 33 34 35 36 37 38 39 3a 3b
    00000040: 3c 3d 3e 3f 40 41 42 43 44 45 46 47 48 49 4a 4b
    00000050: 4c 4d 4e 4f 50 51 52 53 54 55 56 57 58 59 5a 5b
    00000060: 5c 5d 5e 5f 60 61 62 63 64 65 66 67 68 69 6a 6b
    00000070: 6c 6d 6e 6f 70 71 72 73 74 75 76 77 78 79 7a 7b
    00000080: 7c 7d 7e 7f 80 81 82 83 84 85 86 87 88 89 8a 8b
    00000090: 8c 8d 8e 8f 90 91 92 93 94 95 96 97 98 99 9a 9b
    000000a0: 9c 9d 9e 9f a0 a1 a2 a3 a4 a5 a6 a7 a8 a9 aa ab
    000000b0: ac ad ae af b0 b1 b2 b3 b4 b5 b6 b7 b8 b9 ba bb
    000000c0: bc bd be bf c0 c1 c2 c3 c4 c5 c6 c7 c8 c9 ca cb
    000000d0: cc cd ce cf d0 d1 d2 d3 d4 d5 d6 d7 d8 d9 da db
    000000e0: dc dd de df e0 e1 e2 e3 e4 e5 e6 e7 e8 e9 ea eb
    000000f0: ec ed ee ef f0 f1 f2 f3 f4 f5 f6 f7 f8 f9 fa fb
    00000100: fc fd fe ff

BULK > 02 (URB 878) [2044 ms]
    00000000: 00 90 01 00 d8

BULK > 02 (URB 879) [2044 ms]
    00000000: 00 90 01 00 d8

BULK > 02 (URB 880) [2045 ms]
    00000000: 00 b0 01 00 00

BULK > 02 (URB 881) [2045 ms]
    00000000: 00 07 01 00 00

BULK > 02 (URB 882) [2045 ms]
    00000000: 00 07 01 00 00

BULK > 02 (URB 883) [2046 ms]
    00000000: 00 08 01 00 00

BULK > 02 (URB 884) [2046 ms]
    00000000: 00 09 01 00 69

BULK > 02 (URB 885) [2047 ms]
    00000000: 00 0a 01 00 00

BULK > 02 (URB 886) [2047 ms]
    00000000: 00 0b 01 00 a8

BULK > 02 (URB 887) [2048 ms]
    00000000: 00 a0 01 00 1d

BULK > 02 (URB 888) [2048 ms]
    00000000: 00 a1 01 00 00

BULK > 02 (URB 889) [2048 ms]
    00000000: 00 a2 01 00 01

BULK > 02 (URB 890) [2049 ms]
    00000000: 00 a3 01 00 90

BULK > 02 (URB 891) [2049 ms]
    00000000: 00 64 01 00 00

BULK > 02 (URB 892) [2050 ms]
    00000000: 00 65 01 00 00

BULK > 02 (URB 893) [2050 ms]
    00000000: 00 61 01 00 00

BULK > 02 (URB 894) [2050 ms]
    00000000: 00 62 01 00 15

BULK > 02 (URB 895) [2051 ms]
    00000000: 00 63 01 00 e0

BULK > 02 (URB 896) [2051 ms]
    00000000: 00 50 01 00 04

BULK > 02 (URB 897) [2052 ms]
    00000000: 00 50 01 00 04

BULK > 02 (URB 898) [2052 ms]
    00000000: 00 51 01 00 07

BULK > 02 (URB 899) [2052 ms]
    00000000: 00 5a 01 00 32

BULK > 02 (URB 900) [2053 ms]
    00000000: 00 5b 01 00 32

BULK > 02 (URB 901) [2053 ms]
    00000000: 00 5c 01 00 32

BULK > 02 (URB 902) [2054 ms]
    00000000: 00 5d 01 00 32

BULK > 02 (URB 903) [2054 ms]
    00000000: 00 52 01 00 00

BULK > 02 (URB 904) [2055 ms]
    00000000: 00 53 01 00 01

BULK > 02 (URB 905) [2055 ms]
    00000000: 00 54 01 00 00

BULK > 02 (URB 906) [2055 ms]
    00000000: 00 55 01 00 01

BULK > 02 (URB 907) [2056 ms]
    00000000: 00 56 01 00 00

BULK > 02 (URB 908) [2056 ms]
    00000000: 00 57 01 00 01

BULK > 02 (URB 909) [2057 ms]
    00000000: 00 58 01 00 00

BULK > 02 (URB 910) [2057 ms]
    00000000: 00 59 01 00 01

BULK > 02 (URB 911) [2058 ms]
    00000000: 00 5e 01 00 02

BULK > 02 (URB 912) [2058 ms]
    00000000: 00 5f 01 00 00

BULK > 02 (URB 913) [2058 ms]
    00000000: 00 5f 01 00 03

BULK > 02 (URB 914) [2059 ms]
    00000000: 00 60 01 00 15

BULK > 02 (URB 915) [2059 ms]
    00000000: 00 60 01 00 15

BULK > 02 (URB 916) [2060 ms]
    00000000: 00 60 01 00 15

BULK > 02 (URB 917) [2060 ms]
    00000000: 00 60 01 00 15

BULK > 02 (URB 918) [2060 ms]
    00000000: 00 50 01 00 04

BULK > 02 (URB 919) [2061 ms]
    00000000: 00 51 01 00 07

BULK > 02 (URB 920) [2061 ms]
    00000000: 00 81 01 00 29

BULK > 02 (URB 921) [2062 ms]
    00000000: 00 81 01 00 29

BULK > 02 (URB 922) [2062 ms]
    00000000: 00 82 01 00 09

BULK > 02 (URB 923) [2063 ms]
    00000000: 00 82 01 00 09

BULK > 02 (URB 924) [2063 ms]
    00000000: 00 83 01 00 02

BULK > 02 (URB 925) [2064 ms]
    00000000: 00 84 01 00 06

BULK > 02 (URB 926) [2064 ms]
    00000000: 00 80 01 00 12

BULK > 02 (URB 927) [2064 ms]
    00000000: 00 80 01 00 12

BULK > 02 (URB 928) [2065 ms]
    00000000: 00 b0 01 00 00

BULK > 02 (URB 929) [2065 ms]
    00000000: 00 10 01 00 05

BULK > 02 (URB 930) [2066 ms]
    00000000: 00 10 01 00 05

BULK > 02 (URB 931) [2066 ms]
    00000000: 00 9b 01 00 01

BULK > 02 (URB 932) [2067 ms]
    00000000: 00 10 01 00 05

BULK > 02 (URB 933) [2067 ms]
    00000000: 00 11 01 00 83

BULK > 02 (URB 934) [2067 ms]
    00000000: 00 11 01 00 83

BULK > 02 (URB 935) [2068 ms]
    00000000: 00 11 01 00 83

BULK > 02 (URB 936) [2068 ms]
    00000000: 00 11 01 00 83

BULK > 02 (URB 937) [2069 ms]
    00000000: 00 11 01 00 83

BULK > 02 (URB 938) [2069 ms]
    00000000: 00 11 01 00 83

BULK > 02 (URB 939) [2069 ms]
    00000000: 00 11 01 00 83

BULK > 02 (URB 940) [2070 ms]
    00000000: 00 12 01 00 12

BULK > 02 (URB 941) [2070 ms]
    00000000: 00 13 01 00 12

BULK > 02 (URB 942) [2071 ms]
    00000000: 00 16 01 00 12

BULK > 02 (URB 943) [2071 ms]
    00000000: 00 21 01 00 06

BULK > 02 (URB 944) [2072 ms]
    00000000: 00 22 01 00 12

BULK > 02 (URB 945) [2072 ms]
    00000000: 00 20 01 00 06

BULK > 02 (URB 946) [2072 ms]
    00000000: 00 1d 01 00 00

BULK > 02 (URB 947) [2073 ms]
    00000000: 00 1e 01 00 03

BULK > 02 (URB 948) [2073 ms]
    00000000: 00 1f 01 00 e8

BULK > 02 (URB 949) [2074 ms]
    00000000: 00 66 01 00 00

BULK > 02 (URB 950) [2074 ms]
    00000000: 00 67 01 00 00

BULK > 02 (URB 951) [2074 ms]
    00000000: 00 68 01 00 06

BULK > 02 (URB 952) [2075 ms]
    00000000: 00 1a 01 00 00

BULK > 02 (URB 953) [2075 ms]
    00000000: 00 1b 01 00 00

BULK > 02 (URB 954) [2075 ms]
    00000000: 00 1c 01 00 02

BULK > 02 (URB 955) [2076 ms]
    00000000: 00 15 01 00 80

BULK > 02 (URB 956) [2076 ms]
    00000000: 00 14 01 00 7c

BULK > 02 (URB 957) [2077 ms]
    00000000: 00 17 01 00 01

BULK > 02 (URB 958) [2077 ms]
    00000000: 00 43 01 00 1c

BULK > 02 (URB 959) [2077 ms]
    00000000: 00 44 01 00 9c

BULK > 02 (URB 960) [2078 ms]
    00000000: 00 45 01 00 38

BULK > 02 (URB 961) [2078 ms]
    00000000: 00 23 01 00 14

BULK > 02 (URB 962) [2079 ms]
    00000000: 00 33 01 00 14

BULK > 02 (URB 963) [2079 ms]
    00000000: 00 24 01 00 14

BULK > 02 (URB 964) [2080 ms]
    00000000: 00 34 01 00 14

BULK > 02 (URB 965) [2080 ms]
    00000000: 00 25 01 00 14

BULK > 02 (URB 966) [2080 ms]
    00000000: 00 35 01 00 14

BULK > 02 (URB 967) [2081 ms]
    00000000: 00 26 01 00 14

BULK > 02 (URB 968) [2081 ms]
    00000000: 00 36 01 00 14

BULK > 02 (URB 969) [2082 ms]
    00000000: 00 27 01 00 14

BULK > 02 (URB 970) [2082 ms]
    00000000: 00 37 01 00 14

BULK > 02 (URB 971) [2082 ms]
    00000000: 00 28 01 00 14

BULK > 02 (URB 972) [2083 ms]
    00000000: 00 38 01 00 14

BULK > 02 (URB 973) [2083 ms]
    00000000: 00 29 01 00 14

BULK > 02 (URB 974) [2084 ms]
    00000000: 00 39 01 00 14

BULK > 02 (URB 975) [2084 ms]
    00000000: 00 2a 01 00 14

BULK > 02 (URB 976) [2084 ms]
    00000000: 00 3a 01 00 14

BULK > 02 (URB 977) [2085 ms]
    00000000: 00 2b 01 00 14

BULK > 02 (URB 978) [2085 ms]
    00000000: 00 3b 01 00 14

BULK > 02 (URB 979) [2086 ms]
    00000000: 00 2c 01 00 14

BULK > 02 (URB 980) [2086 ms]
    00000000: 00 3c 01 00 14

BULK > 02 (URB 981) [2086 ms]
    00000000: 00 2d 01 00 14

BULK > 02 (URB 982) [2087 ms]
    00000000: 00 3d 01 00 14

BULK > 02 (URB 983) [2087 ms]
    00000000: 00 2e 01 00 14

BULK > 02 (URB 984) [2088 ms]
    00000000: 00 3e 01 00 14

BULK > 02 (URB 985) [2088 ms]
    00000000: 00 2f 01 00 14

BULK > 02 (URB 986) [2089 ms]
    00000000: 00 3f 01 00 14

BULK > 02 (URB 987) [2089 ms]
    00000000: 00 30 01 00 14

BULK > 02 (URB 988) [2089 ms]
    00000000: 00 40 01 00 14

BULK > 02 (URB 989) [2090 ms]
    00000000: 00 31 01 00 14

BULK > 02 (URB 990) [2090 ms]
    00000000: 00 41 01 00 14

BULK > 02 (URB 991) [2091 ms]
    00000000: 00 32 01 00 14

BULK > 02 (URB 992) [2091 ms]
    00000000: 00 42 01 00 14

BULK > 02 (URB 993) [2091 ms]
    00000000: 00 ca 01 00 10

BULK > 02 (URB 994) [2092 ms]
    00000000: 00 ca 01 00 10

BULK > 02 (URB 995) [2092 ms]
    00000000: 00 ca 01 00 00

BULK > 02 (URB 996) [2093 ms]
    00000000: 00 18 01 00 00

BULK > 02 (URB 997) [2093 ms]
    00000000: 00 71 01 00 01

BULK > 02 (URB 998) [2094 ms]
    00000000: 02 30 01 00 11

BULK > 02 (URB 999) [2094 ms]
    00000000: 00 71 01 00 14

BULK > 02 (URB 1000) [2094 ms]
    00000000: 00 72 01 00 00

BULK > 02 (URB 1001) [2095 ms]
    00000000: 00 73 01 00 50

BULK > 02 (URB 1002) [2095 ms]
    00000000: 00 74 01 00 03

BULK > 02 (URB 1003) [2096 ms]
    00000000: 00 75 01 00 00

BULK > 02 (URB 1004) [2096 ms]
    00000000: 00 76 01 00 00

BULK > 02 (URB 1005) [2096 ms]
    00000000: 02 39 01 00 40

BULK > 02 (URB 1006) [2097 ms]
    00000000: 02 38 01 00 89

BULK > 02 (URB 1007) [2097 ms]
    00000000: 02 3c 01 00 2f

BULK > 02 (URB 1008) [2097 ms]
    00000000: 02 64 01 00 20

BULK > 02 (URB 1009) [2098 ms]
    00000000: 04 70 48 00 80 25 58 25 32 25 0b 25 e5 24 c0 24
    00000010: 9a 24 75 24 50 24 2b 24 07 24 e3 23 bf 23 9c 23
    00000020: 79 23 56 23 33 23 11 23 ee 22 cd 22 ab 22 8a 22
    00000030: 68 22 48 22 27 22 07 22 e6 21 c7 21 a7 21 87 21
    00000040: 68 21 49 21 2a 21 0c 21 ee 20 d0 20 48 49 4a 4b
    00000050: 4c 4d 4e 4f

BULK > 02 (URB 1010) [2098 ms]
    00000000: 00 71 01 00 01

BULK > 02 (URB 1011) [2099 ms]
    00000000: 02 30 01 00 11

BULK > 02 (URB 1012) [2099 ms]
    00000000: 00 71 01 00 14

BULK > 02 (URB 1013) [2100 ms]
    00000000: 00 72 01 00 00

BULK > 02 (URB 1014) [2100 ms]
    00000000: 00 73 01 00 50

BULK > 02 (URB 1015) [2101 ms]
    00000000: 00 74 01 00 03

BULK > 02 (URB 1016) [2101 ms]
    00000000: 00 75 01 00 02

BULK > 02 (URB 1017) [2101 ms]
    00000000: 00 76 01 00 00

BULK > 02 (URB 1018) [2102 ms]
    00000000: 02 39 01 00 40

BULK > 02 (URB 1019) [2102 ms]
    00000000: 02 38 01 00 89

BULK > 02 (URB 1020) [2103 ms]
    00000000: 02 3c 01 00 2f

BULK > 02 (URB 1021) [2103 ms]
    00000000: 02 64 01 00 20

BULK > 02 (URB 1022) [2103 ms]
    00000000: 04 70 48 00 80 25 58 25 32 25 0b 25 e5 24 c0 24
    00000010: 9a 24 75 24 50 24 2b 24 07 24 e3 23 bf 23 9c 23
    00000020: 79 23 56 23 33 23 11 23 ee 22 cd 22 ab 22 8a 22
    00000030: 68 22 48 22 27 22 07 22 e6 21 c7 21 a7 21 87 21
    00000040: 68 21 49 21 2a 21 0c 21 ee 20 d0 20 48 49 4a 4b
    00000050: 4c 4d 4e 4f

BULK > 02 (URB 1023) [2104 ms]
    00000000: 00 71 01 00 01

BULK > 02 (URB 1024) [2104 ms]
    00000000: 02 30 01 00 11

BULK > 02 (URB 1025) [2105 ms]
    00000000: 00 71 01 00 14

BULK > 02 (URB 1026) [2105 ms]
    00000000: 00 72 01 00 00

BULK > 02 (URB 1027) [2106 ms]
    00000000: 00 73 01 00 20

BULK > 02 (URB 1028) [2106 ms]
    00000000: 00 74 01 00 03

BULK > 02 (URB 1029) [2106 ms]
    00000000: 00 75 01 00 04

BULK > 02 (URB 1030) [2107 ms]
    00000000: 00 76 01 00 00

BULK > 02 (URB 1031) [2107 ms]
    00000000: 02 39 01 00 40

BULK > 02 (URB 1032) [2108 ms]
    00000000: 02 38 01 00 89

BULK > 02 (URB 1033) [2108 ms]
    00000000: 02 3c 01 00 2f

BULK > 02 (URB 1034) [2108 ms]
    00000000: 02 64 01 00 20

BULK > 02 (URB 1035) [2109 ms]
    00000000: 04 70 18 00 80 25 04 25 8c 24 18 24 a5 23 36 23
    00000010: ca 22 60 22 f8 21 93 21 30 21 d0 20 bf 23 9c 23
    00000020: 79 23 56 23

BULK > 02 (URB 1036) [2109 ms]
    00000000: 00 71 01 00 01

BULK > 02 (URB 1037) [2110 ms]
    00000000: 02 30 01 00 11

BULK > 02 (URB 1038) [2110 ms]
    00000000: 00 71 01 00 14

BULK > 02 (URB 1039) [2111 ms]
    00000000: 00 72 01 00 00

BULK > 02 (URB 1040) [2111 ms]
    00000000: 00 73 01 00 50

BULK > 02 (URB 1041) [2111 ms]
    00000000: 00 74 01 00 03

BULK > 02 (URB 1042) [2112 ms]
    00000000: 00 75 01 00 06

BULK > 02 (URB 1043) [2112 ms]
    00000000: 00 76 01 00 00

BULK > 02 (URB 1044) [2113 ms]
    00000000: 02 39 01 00 40

BULK > 02 (URB 1045) [2113 ms]
    00000000: 02 38 01 00 89

BULK > 02 (URB 1046) [2113 ms]
    00000000: 02 3c 01 00 2f

BULK > 02 (URB 1047) [2114 ms]
    00000000: 02 64 01 00 20

BULK > 02 (URB 1048) [2114 ms]
    00000000: 04 70 48 00 80 25 58 25 32 25 0b 25 e5 24 c0 24
    00000010: 9a 24 75 24 50 24 2b 24 07 24 e3 23 bf 23 9c 23
    00000020: 79 23 56 23 33 23 11 23 ee 22 cd 22 ab 22 8a 22
    00000030: 68 22 48 22 27 22 07 22 e6 21 c7 21 a7 21 87 21
    00000040: 68 21 49 21 2a 21 0c 21 ee 20 d0 20 48 49 4a 4b
    00000050: 4c 4d 4e 4f

BULK > 02 (URB 1049) [2115 ms]
    00000000: 00 71 01 00 01

BULK > 02 (URB 1050) [2115 ms]
    00000000: 02 30 01 00 11

BULK > 02 (URB 1051) [2116 ms]
    00000000: 00 71 01 00 14

BULK > 02 (URB 1052) [2116 ms]
    00000000: 00 72 01 00 00

BULK > 02 (URB 1053) [2116 ms]
    00000000: 00 73 01 00 20

BULK > 02 (URB 1054) [2117 ms]
    00000000: 00 74 01 00 03

BULK > 02 (URB 1055) [2117 ms]
    00000000: 00 75 01 00 08

BULK > 02 (URB 1056) [2118 ms]
    00000000: 00 76 01 00 00

BULK > 02 (URB 1057) [2118 ms]
    00000000: 02 39 01 00 40

BULK > 02 (URB 1058) [2118 ms]
    00000000: 02 38 01 00 89

BULK > 02 (URB 1059) [2119 ms]
    00000000: 02 3c 01 00 2f

BULK > 02 (URB 1060) [2119 ms]
    00000000: 02 64 01 00 20

BULK > 02 (URB 1061) [2120 ms]
    00000000: 04 70 18 00 80 25 04 25 8c 24 18 24 a5 23 36 23
    00000010: ca 22 60 22 f8 21 93 21 30 21 d0 20 bf 23 9c 23
    00000020: 79 23 56 23

BULK > 02 (URB 1062) [2120 ms]
    00000000: 00 10 01 00 05

BULK > 02 (URB 1063) [2120 ms]
    00000000: 01 4a 01 00

BULK > 03 (URB 1064) [2121 ms]
BULK < 83 (URB 1064)
    00000000: 00

BULK > 02 (URB 1065) [2121 ms]
    00000000: 01 4b 01 00

BULK > 03 (URB 1066) [2122 ms]
BULK < 83 (URB 1066)
    00000000: 00

BULK > 02 (URB 1067) [2122 ms]
    00000000: 01 4c 01 00

BULK > 03 (URB 1068) [2123 ms]
BULK < 83 (URB 1068)
    00000000: 00

BULK > 02 (URB 1069) [2123 ms]
    00000000: 00 11 01 00 93

BULK > 02 (URB 1070) [2124 ms]
    00000000: 00 60 01 00 15

BULK > 02 (URB 1071) [2124 ms]
    00000000: 00 80 01 00 12

BULK > 02 (URB 1072) [2124 ms]
    00000000: 00 03 01 00 01

BULK > 02 (URB 1073) [2125 ms]
    00000000: 01 46 01 00

BULK > 03 (URB 1074) [2125 ms]
BULK < 83 (URB 1074)
    00000000: 0b

BULK > 02 (URB 1075) [2223 ms]
    00000000: 01 46 01 00

BULK > 03 (URB 1076) [2224 ms]
BULK < 83 (URB 1076)
    00000000: 4b

BULK > 02 (URB 1077) [2488 ms]
    00000000: 01 46 01 00

BULK > 03 (URB 1078) [2492 ms]
BULK < 83 (URB 1078)
    00000000: 00

BULK > 02 (URB 1079) [2494 ms]
    00000000: 00 80 01 00 12

BULK > 02 (URB 1080) [2496 ms]
    00000000: 00 11 01 00 83

BULK > 02 (URB 1081) [2497 ms]
    00000000: 00 9b 01 00 01

BULK > 02 (URB 1082) [2513 ms]
    00000000: 01 46 01 00

BULK > 03 (URB 1083) [2515 ms]
BULK < 83 (URB 1083)
    00000000: 00

BULK > 02 (URB 1084) [2516 ms]
    00000000: 01 46 01 00

BULK > 03 (URB 1085) [2517 ms]
BULK < 83 (URB 1085)
    00000000: 00

BULK > 02 (URB 1086) [2519 ms]
    00000000: 01 46 01 00

BULK > 03 (URB 1087) [2521 ms]
BULK < 83 (URB 1087)
    00000000: 00

BULK > 02 (URB 1088) [2523 ms]
    00000000: 00 80 01 00 12

BULK > 02 (URB 1089) [2524 ms]
    00000000: 00 11 01 00 83

BULK > 02 (URB 1090) [2526 ms]
    00000000: 01 46 01 00

BULK > 03 (URB 1091) [2529 ms]
BULK < 83 (URB 1091)
    00000000: 00

BULK > 02 (URB 1092) [2530 ms]
    00000000: 00 01 01 00 29

BULK > 02 (URB 1093) [2531 ms]
    00000000: 00 04 01 00 0c

BULK > 02 (URB 1094) [2533 ms]
    00000000: 00 05 01 00 00

BULK > 02 (URB 1095) [2535 ms]
    00000000: 00 06 01 00 00

BULK > 02 (URB 1096) [2538 ms]
    00000000: 00 01 01 00 29

BULK > 02 (URB 1097) [2538 ms]
    00000000: 00 71 01 00 01

BULK > 02 (URB 1098) [2540 ms]
    00000000: 02 30 01 00 11

BULK > 02 (URB 1099) [2541 ms]
    00000000: 00 71 01 00 16

BULK > 02 (URB 1100) [2543 ms]
    00000000: 00 72 01 00 01

BULK > 02 (URB 1101) [2545 ms]
    00000000: 00 73 01 00 00

BULK > 02 (URB 1102) [2546 ms]
    00000000: 00 74 01 00 00

BULK > 02 (URB 1103) [2548 ms]
    00000000: 00 75 01 00 00

BULK > 02 (URB 1104) [2550 ms]
    00000000: 00 76 01 00 00

BULK > 02 (URB 1105) [2551 ms]
    00000000: 02 39 01 00 40

BULK > 02 (URB 1106) [2554 ms]
    00000000: 02 38 01 00 89

BULK > 02 (URB 1107) [2556 ms]
    00000000: 02 3c 01 00 2f

BULK > 02 (URB 1108) [2557 ms]
    00000000: 02 64 01 00 20

BULK > 02 (URB 1109)
    00000000: 04 70 00 01 00 01 02 04 05 07 08 09 0b 0c 0e 0f
    00000010: 11 12 13 15 16 18 19 1a 1c 1d 1f 20 22 23 24 26
    00000020: 27 29 2a 2b 2d 2e 30 31 33 34 35 37 38 3a 3b 3c
    00000030: 3e 3f 41 42 44 45 46 48 49 4b 4c 4d 4f 50 52 53
    00000040: 55 56 57 59 5a 5c 5d 5e 60 61 63 64 66 67 68 6a
    00000050: 6b 6d 6e 6f 71 72 74 75 77 78 79 7b 7c 7e 7f 80
    00000060: 82 83 85 86 88 89 8a 8c 8d 8f 90 91 93 94 96 97
    00000070: 99 9a 9b 9d 9e a0 a1 a2 a4 a5 a7 a8 aa ab ac ae
    00000080: af b1 b2 b3 b5 b6 b8 b9 bb bc bd bf c0 c2 c3 c4
    00000090: c6 c7 c9 ca cc cd ce d0 d1 d3 d4 d5 d7 d8 da db
    000000a0: dd de df e1 e2 e4 e5 e6 e8 e9 eb ec ee ef f0 f2
    000000b0: f3 f5 f6 f7 f9 fa fc fd ff ff ff ff ff ff ff ff
    000000c0: ff ff ff ff ff ff ff ff ff ff ff ff ff ff ff ff
    000000d0: ff ff ff ff ff ff ff ff ff ff ff ff ff ff ff ff
    000000e0: ff ff ff ff ff ff ff ff ff ff ff ff ff ff ff ff
    000000f0: ff ff ff ff ff ff ff ff ff ff ff ff ff ff ff ff
    00000100: ff ff ff ff

BULK > 02 (URB 1110) [2560 ms]
    00000000: 00 71 01 00 01

BULK > 02 (URB 1111) [2562 ms]
    00000000: 02 30 01 00 11

BULK > 02 (URB 1112) [2565 ms]
    00000000: 00 71 01 00 16

BULK > 02 (URB 1113) [2566 ms]
    00000000: 00 72 01 00 01

BULK > 02 (URB 1114) [2568 ms]
    00000000: 00 73 01 00 00

BULK > 02 (URB 1115) [2570 ms]
    00000000: 00 74 01 00 00

BULK > 02 (URB 1116) [2571 ms]
    00000000: 00 75 01 00 01

BULK > 02 (URB 1117) [2573 ms]
    00000000: 00 76 01 00 00

BULK > 02 (URB 1118) [2576 ms]
    00000000: 02 39 01 00 40

BULK > 02 (URB 1119) [2578 ms]
    00000000: 02 38 01 00 89

BULK > 02 (URB 1120) [2583 ms]
    00000000: 02 3c 01 00 2f

BULK > 02 (URB 1121) [2586 ms]
    00000000: 02 64 01 00 20

BULK > 02 (URB 1122) [2586 ms]
    00000000: 04 70 00 01 00 01 02 03 04 05 06 07 08 09 0a 0b
    00000010: 0c 0d 0e 0f 10 11 12 13 14 15 16 17 18 19 1a 1b
    00000020: 1c 1d 1e 1f 20 21 22 23 24 25 26 27 28 29 2a 2b
    00000030: 2c 2d 2e 2f 30 31 32 33 34 35 36 37 38 39 3a 3b
    00000040: 3c 3d 3e 3f 40 41 42 43 44 45 46 47 48 49 4a 4b
    00000050: 4c 4d 4e 4f 50 51 52 53 54 55 56 57 58 59 5a 5b
    00000060: 5c 5d 5e 5f 60 61 62 63 64 65 66 67 68 69 6a 6b
    00000070: 6c 6d 6e 6f 70 71 72 73 74 75 76 77 78 79 7a 7b
    00000080: 7c 7d 7e 7f 80 81 82 83 84 85 86 87 88 89 8a 8b
    00000090: 8c 8d 8e 8f 90 91 92 93 94 95 96 97 98 99 9a 9b
    000000a0: 9c 9d 9e 9f a0 a1 a2 a3 a4 a5 a6 a7 a8 a9 aa ab
    000000b0: ac ad ae af b0 b1 b2 b3 b4 b5 b6 b7 b8 b9 ba bb
    000000c0: bc bd be bf c0 c1 c2 c3 c4 c5 c6 c7 c8 c9 ca cb
    000000d0: cc cd ce cf d0 d1 d2 d3 d4 d5 d6 d7 d8 d9 da db
    000000e0: dc dd de df e0 e1 e2 e3 e4 e5 e6 e7 e8 e9 ea eb
    000000f0: ec ed ee ef f0 f1 f2 f3 f4 f5 f6 f7 f8 f9 fa fb
    00000100: fc fd fe ff

BULK > 02 (URB 1123) [2591 ms]
    00000000: 00 71 01 00 01

BULK > 02 (URB 1124) [2597 ms]
    00000000: 02 30 01 00 11

BULK > 02 (URB 1125) [2606 ms]
    00000000: 00 71 01 00 16

BULK > 02 (URB 1126) [2614 ms]
    00000000: 00 72 01 00 01

BULK > 02 (URB 1127) [2619 ms]
    00000000: 00 73 01 00 00

BULK > 02 (URB 1128) [2626 ms]
    00000000: 00 74 01 00 00

BULK > 02 (URB 1129) [2635 ms]
    00000000: 00 75 01 00 02

BULK > 02 (URB 1130) [2653 ms]
    00000000: 00 76 01 00 00

BULK > 02 (URB 1131) [2663 ms]
    00000000: 02 39 01 00 40

BULK > 02 (URB 1132) [2670 ms]
    00000000: 02 38 01 00 89

BULK > 02 (URB 1133) [2671 ms]
    00000000: 02 3c 01 00 2f

BULK > 02 (URB 1134) [2675 ms]
    00000000: 02 64 01 00 20

BULK > 02 (URB 1135) [1921 ms]
    00000000: 04 70 00 01 00 01 02 03 04 05 06 07 08 09 0a 0b
    00000010: 0c 0d 0e 0f 10 11 12 13 14 15 16 17 18 19 1a 1b
    00000020: 1c 1d 1e 1f 20 21 22 23 24 25 26 27 28 29 2a 2b
    00000030: 2c 2d 2e 2f 30 31 32 33 34 35 36 37 38 39 3a 3b
    00000040: 3c 3d 3e 3f 40 41 42 43 44 45 46 47 48 49 4a 4b
    00000050: 4c 4d 4e 4f 50 51 52 53 54 55 56 57 58 59 5a 5b
    00000060: 5c 5d 5e 5f 60 61 62 63 64 65 66 67 68 69 6a 6b
    00000070: 6c 6d 6e 6f 70 71 72 73 74 75 76 77 78 79 7a 7b
    00000080: 7c 7d 7e 7f 80 81 82 83 84 85 86 87 88 89 8a 8b
    00000090: 8c 8d 8e 8f 90 91 92 93 94 95 96 97 98 99 9a 9b
    000000a0: 9c 9d 9e 9f a0 a1 a2 a3 a4 a5 a6 a7 a8 a9 aa ab
    000000b0: ac ad ae af b0 b1 b2 b3 b4 b5 b6 b7 b8 b9 ba bb
    000000c0: bc bd be bf c0 c1 c2 c3 c4 c5 c6 c7 c8 c9 ca cb
    000000d0: cc cd ce cf d0 d1 d2 d3 d4 d5 d6 d7 d8 d9 da db
    000000e0: dc dd de df e0 e1 e2 e3 e4 e5 e6 e7 e8 e9 ea eb
    000000f0: ec ed ee ef f0 f1 f2 f3 f4 f5 f6 f7 f8 f9 fa fb
    00000100: fc fd fe ff

BULK > 02 (URB 1136) [2677 ms]
    00000000: 00 90 01 00 d8

BULK > 02 (URB 1137) [2677 ms]
    00000000: 00 90 01 00 d8

BULK > 02 (URB 1138) [2678 ms]
    00000000: 00 b0 01 00 00

BULK > 02 (URB 1139) [2678 ms]
    00000000: 00 07 01 00 00

BULK > 02 (URB 1140) [2679 ms]
    00000000: 00 07 01 00 00

BULK > 02 (URB 1141) [2679 ms]
    00000000: 00 08 01 00 00

BULK > 02 (URB 1142) [2679 ms]
    00000000: 00 09 01 00 69

BULK > 02 (URB 1143) [2680 ms]
    00000000: 00 0a 01 00 14

BULK > 02 (URB 1144) [2680 ms]
    00000000: 00 0b 01 00 58

BULK > 02 (URB 1145) [2680 ms]
    00000000: 00 a0 01 00 1d

BULK > 02 (URB 1146) [2681 ms]
    00000000: 00 a1 01 00 00

BULK > 02 (URB 1147) [2681 ms]
    00000000: 00 a2 01 00 77

BULK > 02 (URB 1148) [2682 ms]
    00000000: 00 a3 01 00 b0

BULK > 02 (URB 1149) [2682 ms]
    00000000: 00 64 01 00 00

BULK > 02 (URB 1150) [2682 ms]
    00000000: 00 65 01 00 00

BULK > 02 (URB 1151) [2683 ms]
    00000000: 00 61 01 00 00

BULK > 02 (URB 1152) [2683 ms]
    00000000: 00 62 01 00 15

BULK > 02 (URB 1153) [2683 ms]
    00000000: 00 63 01 00 e0

BULK > 02 (URB 1154) [2684 ms]
    00000000: 00 50 01 00 04

BULK > 02 (URB 1155) [2684 ms]
    00000000: 00 50 01 00 04

BULK > 02 (URB 1156) [2685 ms]
    00000000: 00 51 01 00 07

BULK > 02 (URB 1157) [2685 ms]
    00000000: 00 5a 01 00 32

BULK > 02 (URB 1158) [2685 ms]
    00000000: 00 5b 01 00 32

BULK > 02 (URB 1159) [2686 ms]
    00000000: 00 5c 01 00 32

BULK > 02 (URB 1160) [2686 ms]
    00000000: 00 5d 01 00 32

BULK > 02 (URB 1161) [2687 ms]
    00000000: 00 52 01 00 07

BULK > 02 (URB 1162) [2687 ms]
    00000000: 00 53 01 00 d0

BULK > 02 (URB 1163) [2687 ms]
    00000000: 00 54 01 00 07

BULK > 02 (URB 1164) [2688 ms]
    00000000: 00 55 01 00 d0

BULK > 02 (URB 1165) [2688 ms]
    00000000: 00 56 01 00 07

BULK > 02 (URB 1166) [2688 ms]
    00000000: 00 57 01 00 d0

BULK > 02 (URB 1167) [2689 ms]
    00000000: 00 58 01 00 00

BULK > 02 (URB 1168) [2689 ms]
    00000000: 00 59 01 00 01

BULK > 02 (URB 1169) [2690 ms]
    00000000: 00 5e 01 00 02

BULK > 02 (URB 1170) [2690 ms]
    00000000: 00 5f 01 00 00

BULK > 02 (URB 1171) [2690 ms]
    00000000: 00 5f 01 00 03

BULK > 02 (URB 1172) [2691 ms]
    00000000: 00 60 01 00 15

BULK > 02 (URB 1173) [2691 ms]
    00000000: 00 60 01 00 15

BULK > 02 (URB 1174) [2691 ms]
    00000000: 00 60 01 00 15

BULK > 02 (URB 1175) [2692 ms]
    00000000: 00 60 01 00 15

BULK > 02 (URB 1176) [2692 ms]
    00000000: 00 50 01 00 04

BULK > 02 (URB 1177) [2693 ms]
    00000000: 00 51 01 00 07

BULK > 02 (URB 1178) [2693 ms]
    00000000: 00 81 01 00 29

BULK > 02 (URB 1179) [2694 ms]
    00000000: 00 81 01 00 29

BULK > 02 (URB 1180) [2694 ms]
    00000000: 00 82 01 00 09

BULK > 02 (URB 1181) [2695 ms]
    00000000: 00 82 01 00 09

BULK > 02 (URB 1182) [2695 ms]
    00000000: 00 83 01 00 02

BULK > 02 (URB 1183) [2695 ms]
    00000000: 00 84 01 00 06

BULK > 02 (URB 1184) [2696 ms]
    00000000: 00 80 01 00 12

BULK > 02 (URB 1185) [2696 ms]
    00000000: 00 80 01 00 12

BULK > 02 (URB 1186) [2697 ms]
    00000000: 00 b0 01 00 00

BULK > 02 (URB 1187) [2697 ms]
    00000000: 00 10 01 00 05

BULK > 02 (URB 1188) [2697 ms]
    00000000: 00 10 01 00 05

BULK > 02 (URB 1189) [2698 ms]
    00000000: 00 9b 01 00 01

BULK > 02 (URB 1190) [2699 ms]
    00000000: 00 10 01 00 05

BULK > 02 (URB 1191) [2699 ms]
    00000000: 00 11 01 00 83

BULK > 02 (URB 1192) [2700 ms]
    00000000: 00 11 01 00 83

BULK > 02 (URB 1193) [2700 ms]
    00000000: 00 11 01 00 c3

BULK > 02 (URB 1194) [2700 ms]
    00000000: 00 11 01 00 c3

BULK > 02 (URB 1195) [2700 ms]
    00000000: 00 11 01 00 c3

BULK > 02 (URB 1196) [2701 ms]
    00000000: 00 11 01 00 c1

BULK > 02 (URB 1197) [2701 ms]
    00000000: 00 11 01 00 c1

BULK > 02 (URB 1198) [2702 ms]
    00000000: 00 12 01 00 12

BULK > 02 (URB 1199) [2702 ms]
    00000000: 00 13 01 00 00

BULK > 02 (URB 1200) [2702 ms]
    00000000: 00 16 01 00 12

BULK > 02 (URB 1201) [2702 ms]
    00000000: 00 21 01 00 06

BULK > 02 (URB 1202) [2706 ms]
    00000000: 00 22 01 00 12

BULK > 02 (URB 1203) [2706 ms]
    00000000: 00 20 01 00 06

BULK > 02 (URB 1204) [2706 ms]
    00000000: 00 1d 01 00 00

BULK > 02 (URB 1205) [2707 ms]
    00000000: 00 1e 01 00 00

BULK > 02 (URB 1206) [2707 ms]
    00000000: 00 1f 01 00 04

BULK > 02 (URB 1207) [2707 ms]
    00000000: 00 66 01 00 00

BULK > 02 (URB 1208) [2708 ms]
    00000000: 00 67 01 00 55

BULK > 02 (URB 1209) [2708 ms]
    00000000: 00 68 01 00 8c

BULK > 02 (URB 1210) [2708 ms]
    00000000: 00 1a 01 00 00

BULK > 02 (URB 1211) [2709 ms]
    00000000: 00 1b 01 00 00

BULK > 02 (URB 1212) [2709 ms]
    00000000: 00 1c 01 00 02

BULK > 02 (URB 1213) [2709 ms]
    00000000: 00 15 01 00 01

BULK > 02 (URB 1214) [2710 ms]
    00000000: 00 14 01 00 01

BULK > 02 (URB 1215) [2710 ms]
    00000000: 00 17 01 00 01

BULK > 02 (URB 1216) [2710 ms]
    00000000: 00 43 01 00 1c

BULK > 02 (URB 1217) [2711 ms]
    00000000: 00 44 01 00 9c

BULK > 02 (URB 1218) [2711 ms]
    00000000: 00 45 01 00 38

BULK > 02 (URB 1219) [2711 ms]
    00000000: 00 23 01 00 14

BULK > 02 (URB 1220) [2712 ms]
    00000000: 00 33 01 00 14

BULK > 02 (URB 1221) [2712 ms]
    00000000: 00 24 01 00 14

BULK > 02 (URB 1222) [2712 ms]
    00000000: 00 34 01 00 14

BULK > 02 (URB 1223) [2713 ms]
    00000000: 00 25 01 00 14

BULK > 02 (URB 1224) [2713 ms]
    00000000: 00 35 01 00 14

BULK > 02 (URB 1225) [2714 ms]
    00000000: 00 26 01 00 14

BULK > 02 (URB 1226) [2714 ms]
    00000000: 00 36 01 00 14

BULK > 02 (URB 1227) [2714 ms]
    00000000: 00 27 01 00 14

BULK > 02 (URB 1228) [2715 ms]
    00000000: 00 37 01 00 14

BULK > 02 (URB 1229) [2715 ms]
    00000000: 00 28 01 00 14

BULK > 02 (URB 1230) [2715 ms]
    00000000: 00 38 01 00 14

BULK > 02 (URB 1231) [2716 ms]
    00000000: 00 29 01 00 14

BULK > 02 (URB 1232) [2716 ms]
    00000000: 00 39 01 00 14

BULK > 02 (URB 1233) [2716 ms]
    00000000: 00 2a 01 00 14

BULK > 02 (URB 1234) [2717 ms]
    00000000: 00 3a 01 00 14

BULK > 02 (URB 1235) [2717 ms]
    00000000: 00 2b 01 00 14

BULK > 02 (URB 1236) [2717 ms]
    00000000: 00 3b 01 00 14

BULK > 02 (URB 1237) [2718 ms]
    00000000: 00 2c 01 00 14

BULK > 02 (URB 1238) [2718 ms]
    00000000: 00 3c 01 00 14

BULK > 02 (URB 1239) [2718 ms]
    00000000: 00 2d 01 00 14

BULK > 02 (URB 1240) [2719 ms]
    00000000: 00 3d 01 00 14

BULK > 02 (URB 1241) [2719 ms]
    00000000: 00 2e 01 00 14

BULK > 02 (URB 1242) [2719 ms]
    00000000: 00 3e 01 00 14

BULK > 02 (URB 1243) [2720 ms]
    00000000: 00 2f 01 00 14

BULK > 02 (URB 1244) [2720 ms]
    00000000: 00 3f 01 00 14

BULK > 02 (URB 1245) [2721 ms]
    00000000: 00 30 01 00 14

BULK > 02 (URB 1246) [2721 ms]
    00000000: 00 40 01 00 14

BULK > 02 (URB 1247) [2721 ms]
    00000000: 00 31 01 00 14

BULK > 02 (URB 1248) [2722 ms]
    00000000: 00 41 01 00 14

BULK > 02 (URB 1249) [2722 ms]
    00000000: 00 32 01 00 14

BULK > 02 (URB 1250) [2722 ms]
    00000000: 00 42 01 00 14

BULK > 02 (URB 1251) [2723 ms]
    00000000: 00 ca 01 00 00

BULK > 02 (URB 1252) [2723 ms]
    00000000: 00 ca 01 00 00

BULK > 02 (URB 1253) [2723 ms]
    00000000: 00 ca 01 00 00

BULK > 02 (URB 1254) [2724 ms]
    00000000: 00 18 01 00 00

BULK > 02 (URB 1255) [2724 ms]
    00000000: 00 71 01 00 01

BULK > 02 (URB 1256) [2724 ms]
    00000000: 02 30 01 00 11

BULK > 02 (URB 1257) [2725 ms]
    00000000: 00 71 01 00 14

BULK > 02 (URB 1258) [2725 ms]
    00000000: 00 72 01 00 00

BULK > 02 (URB 1259) [2725 ms]
    00000000: 00 73 01 00 50

BULK > 02 (URB 1260) [2726 ms]
    00000000: 00 74 01 00 03

BULK > 02 (URB 1261) [2726 ms]
    00000000: 00 75 01 00 00

BULK > 02 (URB 1262) [2726 ms]
    00000000: 00 76 01 00 00

BULK > 02 (URB 1263) [2727 ms]
    00000000: 02 39 01 00 40

BULK > 02 (URB 1264) [2727 ms]
    00000000: 02 38 01 00 89

BULK > 02 (URB 1265) [2727 ms]
    00000000: 02 3c 01 00 2f

BULK > 02 (URB 1266) [2728 ms]
    00000000: 02 64 01 00 20

BULK > 02 (URB 1267) [2728 ms]
    00000000: 04 70 48 00 80 25 58 25 32 25 0b 25 e5 24 c0 24
    00000010: 9a 24 75 24 50 24 2b 24 07 24 e3 23 bf 23 9c 23
    00000020: 79 23 56 23 33 23 11 23 ee 22 cd 22 ab 22 8a 22
    00000030: 68 22 48 22 27 22 07 22 e6 21 c7 21 a7 21 87 21
    00000040: 68 21 49 21 2a 21 0c 21 ee 20 d0 20 48 49 4a 4b
    00000050: 4c 4d 4e 4f

BULK > 02 (URB 1268) [2728 ms]
    00000000: 00 71 01 00 01

BULK > 02 (URB 1269) [2729 ms]
    00000000: 02 30 01 00 11

BULK > 02 (URB 1270) [2729 ms]
    00000000: 00 71 01 00 14

BULK > 02 (URB 1271) [2729 ms]
    00000000: 00 72 01 00 00

BULK > 02 (URB 1272) [2730 ms]
    00000000: 00 73 01 00 50

BULK > 02 (URB 1273) [2730 ms]
    00000000: 00 74 01 00 03

BULK > 02 (URB 1274) [2731 ms]
    00000000: 00 75 01 00 02

BULK > 02 (URB 1275) [2731 ms]
    00000000: 00 76 01 00 00

BULK > 02 (URB 1276) [2731 ms]
    00000000: 02 39 01 00 40

BULK > 02 (URB 1277) [2732 ms]
    00000000: 02 38 01 00 89

BULK > 02 (URB 1278) [2732 ms]
    00000000: 02 3c 01 00 2f

BULK > 02 (URB 1279) [2732 ms]
    00000000: 02 64 01 00 20

BULK > 02 (URB 1280) [2733 ms]
    00000000: 04 70 48 00 80 25 58 25 32 25 0b 25 e5 24 c0 24
    00000010: 9a 24 75 24 50 24 2b 24 07 24 e3 23 bf 23 9c 23
    00000020: 79 23 56 23 33 23 11 23 ee 22 cd 22 ab 22 8a 22
    00000030: 68 22 48 22 27 22 07 22 e6 21 c7 21 a7 21 87 21
    00000040: 68 21 49 21 2a 21 0c 21 ee 20 d0 20 48 49 4a 4b
    00000050: 4c 4d 4e 4f

BULK > 02 (URB 1281) [2733 ms]
    00000000: 00 71 01 00 01

BULK > 02 (URB 1282) [2733 ms]
    00000000: 02 30 01 00 11

BULK > 02 (URB 1283) [2734 ms]
    00000000: 00 71 01 00 14

BULK > 02 (URB 1284) [2734 ms]
    00000000: 00 72 01 00 00

BULK > 02 (URB 1285) [2734 ms]
    00000000: 00 73 01 00 20

BULK > 02 (URB 1286) [2735 ms]
    00000000: 00 74 01 00 03

BULK > 02 (URB 1287) [2735 ms]
    00000000: 00 75 01 00 04

BULK > 02 (URB 1288) [2735 ms]
    00000000: 00 76 01 00 00

BULK > 02 (URB 1289) [2736 ms]
    00000000: 02 39 01 00 40

BULK > 02 (URB 1290) [2736 ms]
    00000000: 02 38 01 00 89

BULK > 02 (URB 1291) [2736 ms]
    00000000: 02 3c 01 00 2f

BULK > 02 (URB 1292) [2737 ms]
    00000000: 02 64 01 00 20

BULK > 02 (URB 1293) [2737 ms]
    00000000: 04 70 18 00 80 25 04 25 8c 24 18 24 a5 23 36 23
    00000010: ca 22 60 22 f8 21 93 21 30 21 d0 20 bf 23 9c 23
    00000020: 79 23 56 23

BULK > 02 (URB 1294) [2737 ms]
    00000000: 00 71 01 00 01

BULK > 02 (URB 1295) [2738 ms]
    00000000: 02 30 01 00 11

BULK > 02 (URB 1296) [2738 ms]
    00000000: 00 71 01 00 14

BULK > 02 (URB 1297) [2738 ms]
    00000000: 00 72 01 00 00

BULK > 02 (URB 1298) [2739 ms]
    00000000: 00 73 01 00 50

BULK > 02 (URB 1299) [2739 ms]
    00000000: 00 74 01 00 03

BULK > 02 (URB 1300) [2739 ms]
    00000000: 00 75 01 00 06

BULK > 02 (URB 1301) [2740 ms]
    00000000: 00 76 01 00 00

BULK > 02 (URB 1302) [2740 ms]
    00000000: 02 39 01 00 40

BULK > 02 (URB 1303) [2740 ms]
    00000000: 02 38 01 00 89

BULK > 02 (URB 1304) [2741 ms]
    00000000: 02 3c 01 00 2f

BULK > 02 (URB 1305) [2741 ms]
    00000000: 02 64 01 00 20

BULK > 02 (URB 1306) [2741 ms]
    00000000: 04 70 48 00 80 25 58 25 32 25 0b 25 e5 24 c0 24
    00000010: 9a 24 75 24 50 24 2b 24 07 24 e3 23 bf 23 9c 23
    00000020: 79 23 56 23 33 23 11 23 ee 22 cd 22 ab 22 8a 22
    00000030: 68 22 48 22 27 22 07 22 e6 21 c7 21 a7 21 87 21
    00000040: 68 21 49 21 2a 21 0c 21 ee 20 d0 20 48 49 4a 4b
    00000050: 4c 4d 4e 4f

BULK > 02 (URB 1307) [2742 ms]
    00000000: 00 71 01 00 01

BULK > 02 (URB 1308) [2742 ms]
    00000000: 02 30 01 00 11

BULK > 02 (URB 1309) [2742 ms]
    00000000: 00 71 01 00 14

BULK > 02 (URB 1310) [2743 ms]
    00000000: 00 72 01 00 00

BULK > 02 (URB 1311) [2743 ms]
    00000000: 00 73 01 00 20

BULK > 02 (URB 1312) [2743 ms]
    00000000: 00 74 01 00 03

BULK > 02 (URB 1313) [2744 ms]
    00000000: 00 75 01 00 08

BULK > 02 (URB 1314) [2744 ms]
    00000000: 00 76 01 00 00

BULK > 02 (URB 1315) [2745 ms]
    00000000: 02 39 01 00 40

BULK > 02 (URB 1316) [2745 ms]
    00000000: 02 38 01 00 89

BULK > 02 (URB 1317) [2745 ms]
    00000000: 02 3c 01 00 2f

BULK > 02 (URB 1318) [2746 ms]
    00000000: 02 64 01 00 20

BULK > 02 (URB 1319) [2746 ms]
    00000000: 04 70 18 00 80 25 04 25 8c 24 18 24 a5 23 36 23
    00000010: ca 22 60 22 f8 21 93 21 30 21 d0 20 bf 23 9c 23
    00000020: 79 23 56 23

BULK > 02 (URB 1320) [2746 ms]
    00000000: 00 9b 01 00 00

BULK > 02 (URB 1321) [2747 ms]
    00000000: 00 10 01 00 05
#    00000000: 00 10 01 00 15

BULK > 02 (URB 1322) [2747 ms]
    00000000: 01 4a 01 00

BULK > 03 (URB 1323) [2747 ms]
BULK < 83 (URB 1323)
    00000000: 00

BULK > 02 (URB 1324) [2748 ms]
    00000000: 01 4b 01 00

BULK > 03 (URB 1325) [2748 ms]
BULK < 83 (URB 1325)
    00000000: 00

BULK > 02 (URB 1326) [2748 ms]
    00000000: 01 4c 01 00

BULK > 03 (URB 1327) [2748 ms]
BULK < 83 (URB 1327)
    00000000: 00

BULK > 02 (URB 1328) [2749 ms]
    00000000: 00 11 01 00 d1
#    00000000: 00 11 01 00 91
#    00000000: 00 11 01 00 d3

BULK > 02 (URB 1329) [2749 ms]
    00000000: 00 60 01 00 15

BULK > 02 (URB 1330) [2749 ms]
    00000000: 00 80 01 00 12

BULK > 02 (URB 1331) [2750 ms]
    00000000: 00 03 01 00 01

BULK > 02 (URB 1332) [2750 ms]
    00000000: 00 71 01 00 01

BULK > 02 (URB 1333) [2750 ms]
    00000000: 02 30 01 00 11

BULK > 02 (URB 1334) [2751 ms]
    00000000: 00 71 01 00 18

BULK > 02 (URB 1335) [2751 ms]
    00000000: 00 72 01 00 00

BULK > 02 (URB 1336) [2751 ms]
    00000000: 00 73 01 00 10

BULK > 02 (URB 1337) [2752 ms]
    00000000: 02 39 01 00 40

BULK > 02 (URB 1338) [2752 ms]
    00000000: 02 38 01 00 89

BULK > 02 (URB 1339) [2752 ms]
    00000000: 02 3c 01 00 2f

BULK > 02 (URB 1340) [2753 ms]
    00000000: 02 64 01 00 20


